# Blender v2.76 (sub 0) OBJ File: 'pill4.blend'
# www.blender.org
mtllib pill4.mtl
o Torus.001
v 0.078305 5.524977 0.321941
v 0.063455 5.518746 0.266871
v 0.022883 5.514185 0.226556
v -0.032539 5.512516 0.211800
v -0.087961 5.514185 0.226556
v -0.128533 5.518746 0.266871
v -0.143383 5.524977 0.321941
v -0.128533 5.531207 0.377012
v -0.087961 5.535768 0.417327
v -0.032539 5.537437 0.432083
v 0.022883 5.535768 0.417327
v 0.063455 5.531207 0.377012
v 0.073563 5.453095 0.330074
v 0.058840 5.448791 0.274785
v 0.018616 5.449492 0.233875
v -0.036332 5.455010 0.218306
v -0.091280 5.463868 0.232249
v -0.131505 5.473691 0.271968
v -0.146228 5.481848 0.326821
v -0.131505 5.486152 0.382109
v -0.091280 5.485451 0.423019
v -0.036332 5.479932 0.438589
v 0.018616 5.471075 0.424646
v 0.058840 5.461251 0.384926
v 0.059420 5.382443 0.338067
v 0.045076 5.380032 0.282564
v 0.005887 5.385905 0.241069
v -0.047647 5.398489 0.224700
v -0.101180 5.414412 0.237844
v -0.140370 5.429407 0.276978
v -0.154714 5.439456 0.331617
v -0.140370 5.441868 0.387119
v -0.101180 5.435995 0.428614
v -0.047647 5.423410 0.444983
v 0.005887 5.407488 0.431840
v 0.045076 5.392493 0.392705
v 0.036117 5.314230 0.345784
v 0.022397 5.313647 0.290074
v -0.015086 5.324513 0.248014
v -0.066289 5.343919 0.230874
v -0.117493 5.366663 0.243246
v -0.154976 5.386652 0.281815
v -0.168696 5.398529 0.336247
v -0.154976 5.399112 0.391957
v -0.117493 5.388246 0.434017
v -0.066289 5.368840 0.451157
v -0.015086 5.346096 0.438785
v 0.022397 5.326108 0.400216
v 0.004053 5.249623 0.353093
v -0.008807 5.250771 0.297188
v -0.043944 5.266367 0.254593
v -0.091940 5.292233 0.236721
v -0.139937 5.321438 0.248362
v -0.175074 5.346156 0.286397
v -0.187934 5.359765 0.340632
v -0.175074 5.358617 0.396538
v -0.139937 5.343020 0.439133
v -0.091940 5.317154 0.457004
v -0.043944 5.287950 0.445363
v -0.008807 5.263231 0.407329
v -0.036223 5.189727 0.359869
v -0.048004 5.192480 0.303782
v -0.080192 5.212461 0.260691
v -0.124161 5.244317 0.242142
v -0.168131 5.279511 0.253106
v -0.200318 5.308614 0.290644
v -0.212100 5.323827 0.344698
v -0.200318 5.321074 0.400785
v -0.168131 5.301094 0.443876
v -0.124161 5.269238 0.462425
v -0.080192 5.234044 0.451462
v -0.048004 5.204941 0.413924
v -0.084023 5.135568 0.365997
v -0.094523 5.139771 0.309746
v -0.123212 5.163717 0.266206
v -0.162401 5.200989 0.247044
v -0.201591 5.241599 0.257395
v -0.230279 5.274667 0.294484
v -0.240780 5.291331 0.348375
v -0.230279 5.287127 0.404626
v -0.201591 5.263182 0.448165
v -0.162401 5.225910 0.467327
v -0.123212 5.185300 0.456977
v -0.094523 5.152232 0.419887
v -0.138528 5.088071 0.371370
v -0.147568 5.093548 0.314975
v -0.172266 5.120971 0.271042
v -0.206005 5.162992 0.251343
v -0.239744 5.208352 0.261156
v -0.264442 5.244896 0.297852
v -0.273483 5.262834 0.351599
v -0.264442 5.257357 0.407994
v -0.239744 5.229934 0.451927
v -0.206005 5.187913 0.471626
v -0.172266 5.142553 0.461813
v -0.147568 5.106009 0.425116
v -0.198805 5.048050 0.375898
v -0.206230 5.054599 0.319381
v -0.226516 5.084951 0.275117
v -0.254227 5.130975 0.254965
v -0.281938 5.180337 0.264326
v -0.302224 5.219811 0.300690
v -0.309649 5.238821 0.354315
v -0.302224 5.232272 0.410832
v -0.281938 5.201920 0.455096
v -0.254227 5.155896 0.475248
v -0.226516 5.106534 0.465888
v -0.206230 5.067060 0.429523
v -0.263825 5.016190 0.379502
v -0.269507 5.023592 0.322889
v -0.285034 5.056277 0.278361
v -0.306243 5.105486 0.257849
v -0.327452 5.158034 0.266849
v -0.342978 5.199841 0.302950
v -0.348661 5.219705 0.356478
v -0.342978 5.212302 0.413091
v -0.327452 5.179617 0.457619
v -0.306243 5.130408 0.478132
v -0.285034 5.077859 0.469132
v -0.269507 5.036053 0.433031
v -0.332473 4.993034 0.382122
v -0.336316 5.001057 0.325439
v -0.346817 5.035437 0.280719
v -0.361161 5.086962 0.259944
v -0.375506 5.141826 0.268683
v -0.386006 5.185328 0.304592
v -0.389850 5.205812 0.358050
v -0.386006 5.197788 0.414733
v -0.375506 5.163408 0.459453
v -0.361161 5.111884 0.480227
v -0.346817 5.057020 0.471489
v -0.336316 5.013518 0.435580
v -0.403575 4.978981 0.383712
v -0.405514 4.987380 0.326986
v -0.410809 5.022789 0.282150
v -0.418043 5.075719 0.261216
v -0.425277 5.131988 0.269796
v -0.430573 5.176519 0.305588
v -0.432511 5.197379 0.359004
v -0.430573 5.188980 0.415730
v -0.425277 5.153571 0.460566
v -0.418043 5.100641 0.481499
v -0.410809 5.044372 0.472920
v -0.405514 4.999841 0.437128
v -0.475916 4.974269 0.384245
v -0.475916 4.982795 0.327505
v -0.475916 5.018549 0.282629
v -0.475916 5.071950 0.261643
v -0.475916 5.128690 0.270169
v -0.475916 5.173566 0.305922
v -0.475916 5.194552 0.359324
v -0.475916 5.186027 0.416064
v -0.475916 5.150273 0.460939
v -0.475916 5.096871 0.481926
v -0.475916 5.040132 0.473400
v -0.475916 4.995256 0.437646
v -0.548256 4.978981 0.383712
v -0.546318 4.987380 0.326986
v -0.541022 5.022789 0.282150
v -0.533788 5.075719 0.261216
v -0.526554 5.131988 0.269796
v -0.521258 5.176519 0.305588
v -0.519320 5.197379 0.359004
v -0.521258 5.188980 0.415730
v -0.526554 5.153571 0.460566
v -0.533788 5.100641 0.481499
v -0.541022 5.044372 0.472920
v -0.546318 4.999841 0.437128
v -0.619358 4.993034 0.382122
v -0.615515 5.001057 0.325439
v -0.605014 5.035437 0.280719
v -0.590670 5.086962 0.259944
v -0.576326 5.141826 0.268683
v -0.565825 5.185328 0.304592
v -0.561981 5.205812 0.358050
v -0.565825 5.197788 0.414733
v -0.576326 5.163408 0.459453
v -0.590670 5.111884 0.480227
v -0.605014 5.057020 0.471489
v -0.615515 5.013518 0.435580
v -0.688007 5.016190 0.379502
v -0.682324 5.023592 0.322889
v -0.666798 5.056277 0.278361
v -0.645588 5.105486 0.257849
v -0.624379 5.158034 0.266849
v -0.608853 5.199841 0.302950
v -0.603170 5.219704 0.356478
v -0.608853 5.212302 0.413091
v -0.624379 5.179617 0.457619
v -0.645588 5.130408 0.478132
v -0.666798 5.077859 0.469132
v -0.682324 5.036053 0.433031
v -0.753026 5.048050 0.375898
v -0.745601 5.054599 0.319381
v -0.725315 5.084951 0.275117
v -0.697604 5.130975 0.254965
v -0.669893 5.180337 0.264326
v -0.649607 5.219811 0.300690
v -0.642182 5.238821 0.354315
v -0.649607 5.232272 0.410832
v -0.669893 5.201920 0.455096
v -0.697604 5.155896 0.475248
v -0.725315 5.106534 0.465888
v -0.745601 5.067060 0.429523
v -0.813304 5.088071 0.371370
v -0.804263 5.093548 0.314975
v -0.779565 5.120971 0.271042
v -0.745826 5.162992 0.251343
v -0.712087 5.208352 0.261156
v -0.687389 5.244896 0.297852
v -0.678348 5.262834 0.351599
v -0.687389 5.257357 0.407994
v -0.712087 5.229934 0.451927
v -0.745826 5.187913 0.471626
v -0.779565 5.142553 0.461813
v -0.804263 5.106009 0.425116
v -0.867809 5.135568 0.365997
v -0.857308 5.139772 0.309746
v -0.828619 5.163717 0.266206
v -0.789430 5.200989 0.247044
v -0.750241 5.241599 0.257395
v -0.721552 5.274667 0.294484
v -0.711051 5.291331 0.348375
v -0.721552 5.287127 0.404626
v -0.750241 5.263182 0.448165
v -0.789430 5.225910 0.467327
v -0.828619 5.185300 0.456976
v -0.857308 5.152233 0.419887
v -0.915608 5.189727 0.359869
v -0.903827 5.192480 0.303782
v -0.871639 5.212461 0.260691
v -0.827670 5.244317 0.242142
v -0.783700 5.279511 0.253106
v -0.751513 5.308614 0.290644
v -0.739731 5.323827 0.344698
v -0.751513 5.321074 0.400785
v -0.783700 5.301094 0.443876
v -0.827670 5.269238 0.462425
v -0.871639 5.234044 0.451462
v -0.903827 5.204941 0.413924
v -0.955885 5.249623 0.353093
v -0.943024 5.250771 0.297188
v -0.907888 5.266367 0.254593
v -0.859891 5.292233 0.236721
v -0.811894 5.321438 0.248362
v -0.776758 5.346156 0.286397
v -0.763897 5.359765 0.340633
v -0.776758 5.358617 0.396538
v -0.811894 5.343020 0.439133
v -0.859891 5.317154 0.457004
v -0.907888 5.287950 0.445363
v -0.943024 5.263231 0.407329
v -0.987948 5.314230 0.345784
v -0.974229 5.313647 0.290074
v -0.936745 5.324513 0.248014
v -0.885542 5.343919 0.230874
v -0.834339 5.366663 0.243246
v -0.796855 5.386652 0.281815
v -0.783135 5.398529 0.336247
v -0.796855 5.399112 0.391957
v -0.834339 5.388246 0.434017
v -0.885542 5.368840 0.451157
v -0.936745 5.346096 0.438785
v -0.974229 5.326108 0.400216
v -1.011251 5.382443 0.338067
v -0.996907 5.380032 0.282564
v -0.957718 5.385905 0.241069
v -0.904184 5.398489 0.224700
v -0.850651 5.414412 0.237844
v -0.811461 5.429407 0.276978
v -0.797117 5.439456 0.331617
v -0.811461 5.441868 0.387119
v -0.850651 5.435995 0.428614
v -0.904184 5.423411 0.444983
v -0.957718 5.407488 0.431840
v -0.996907 5.392493 0.392705
v -1.025395 5.453095 0.330074
v -1.010671 5.448791 0.274785
v -0.970447 5.449492 0.233875
v -0.915499 5.455010 0.218306
v -0.860551 5.463868 0.232249
v -0.820326 5.473691 0.271968
v -0.805603 5.481848 0.326821
v -0.820326 5.486152 0.382109
v -0.860551 5.485451 0.423019
v -0.915499 5.479932 0.438589
v -0.970447 5.471075 0.424646
v -1.010671 5.461251 0.384927
v -1.030136 5.524977 0.321941
v -1.015286 5.518746 0.266871
v -0.974714 5.514185 0.226556
v -0.919292 5.512516 0.211800
v -0.863870 5.514185 0.226556
v -0.823298 5.518746 0.266871
v -0.808448 5.524977 0.321941
v -0.823298 5.531207 0.377012
v -0.863870 5.535768 0.417327
v -0.919292 5.537437 0.432083
v -0.974714 5.535768 0.417327
v -1.015286 5.531207 0.377012
v -1.025395 5.596859 0.313809
v -1.010671 5.588702 0.258956
v -0.970447 5.578879 0.219237
v -0.915499 5.570022 0.205294
v -0.860551 5.564503 0.220864
v -0.820326 5.563801 0.261773
v -0.805603 5.568106 0.317062
v -0.820326 5.576262 0.371915
v -0.860551 5.586085 0.411634
v -0.915499 5.594943 0.425577
v -0.970447 5.600461 0.410008
v -1.010671 5.601163 0.369098
v -1.011251 5.667510 0.305816
v -0.996907 5.657461 0.251177
v -0.957718 5.642466 0.212043
v -0.904184 5.626543 0.198900
v -0.850651 5.613959 0.215268
v -0.811461 5.608086 0.256763
v -0.797117 5.610497 0.312266
v -0.811461 5.620546 0.366905
v -0.850651 5.635541 0.406039
v -0.904184 5.651464 0.419183
v -0.957718 5.664048 0.402814
v -0.996907 5.669921 0.361319
v -0.987949 5.735723 0.298099
v -0.974229 5.723846 0.243667
v -0.936745 5.703857 0.205098
v -0.885542 5.681113 0.192726
v -0.834339 5.661708 0.209866
v -0.796855 5.650841 0.251926
v -0.783135 5.651424 0.307636
v -0.796855 5.663302 0.362068
v -0.834339 5.683290 0.400637
v -0.885542 5.706035 0.413009
v -0.936745 5.725440 0.395868
v -0.974229 5.736307 0.353809
v -0.955885 5.800330 0.290790
v -0.943024 5.786722 0.236554
v -0.907888 5.762004 0.198520
v -0.859891 5.732799 0.186879
v -0.811894 5.706933 0.204750
v -0.776758 5.691337 0.247345
v -0.763897 5.690189 0.303250
v -0.776758 5.703797 0.357486
v -0.811894 5.728516 0.395521
v -0.859891 5.757720 0.407161
v -0.907888 5.783587 0.389290
v -0.943024 5.799182 0.346695
v -0.915608 5.860226 0.284013
v -0.903827 5.845013 0.229959
v -0.871639 5.815910 0.192421
v -0.827670 5.780715 0.181458
v -0.783700 5.748860 0.200007
v -0.751513 5.728879 0.243098
v -0.739731 5.726126 0.299185
v -0.751513 5.741340 0.353239
v -0.783700 5.770442 0.390777
v -0.827670 5.805637 0.401740
v -0.871639 5.837492 0.383192
v -0.903827 5.857473 0.340100
v -0.867809 5.914385 0.277886
v -0.857308 5.897721 0.223996
v -0.828619 5.864654 0.186906
v -0.789430 5.824043 0.176556
v -0.750241 5.786772 0.195717
v -0.721552 5.762826 0.239257
v -0.711051 5.758622 0.295508
v -0.721552 5.775287 0.349399
v -0.750241 5.808354 0.386488
v -0.789430 5.848965 0.396839
v -0.828619 5.886236 0.377677
v -0.857308 5.910182 0.334137
v -0.813304 5.961882 0.272513
v -0.804264 5.943945 0.218766
v -0.779565 5.907400 0.182070
v -0.745826 5.862041 0.172257
v -0.712087 5.820019 0.191956
v -0.687389 5.792596 0.235889
v -0.678349 5.787120 0.292284
v -0.687389 5.805057 0.346031
v -0.712087 5.841602 0.382727
v -0.745826 5.886962 0.392540
v -0.779565 5.928983 0.372841
v -0.804264 5.956406 0.328908
v -0.753026 6.001904 0.267985
v -0.745601 5.982894 0.214360
v -0.725315 5.943419 0.177995
v -0.697604 5.894057 0.168635
v -0.669893 5.848034 0.188787
v -0.649607 5.817681 0.233051
v -0.642182 5.811132 0.289568
v -0.649607 5.830142 0.343193
v -0.669893 5.869617 0.379557
v -0.697604 5.918979 0.388918
v -0.725315 5.965002 0.368766
v -0.745601 5.995355 0.324501
v -0.688007 6.033764 0.264380
v -0.682324 6.013901 0.210852
v -0.666798 5.972094 0.174751
v -0.645588 5.919546 0.165751
v -0.624379 5.870337 0.186263
v -0.608853 5.837652 0.230792
v -0.603170 5.830249 0.287405
v -0.608853 5.850112 0.340933
v -0.624379 5.891919 0.377034
v -0.645588 5.944467 0.386034
v -0.666798 5.993677 0.365522
v -0.682324 6.026361 0.320994
v -0.619359 6.056919 0.261761
v -0.615515 6.036436 0.208303
v -0.605014 5.992934 0.172394
v -0.590670 5.938070 0.163655
v -0.576326 5.886545 0.184430
v -0.565825 5.852165 0.229150
v -0.561981 5.844142 0.285833
v -0.565825 5.864626 0.339291
v -0.576326 5.908128 0.375200
v -0.590670 5.962991 0.383938
v -0.605014 6.014516 0.363164
v -0.615515 6.048896 0.318444
v -0.548256 6.070972 0.260171
v -0.546318 6.050112 0.206755
v -0.541022 6.005582 0.170963
v -0.533788 5.949313 0.162384
v -0.526554 5.896382 0.183317
v -0.521258 5.860974 0.228153
v -0.519320 5.852574 0.284879
v -0.521258 5.873435 0.338295
v -0.526554 5.917965 0.374087
v -0.533788 5.974234 0.382666
v -0.541022 6.027164 0.361733
v -0.546318 6.062573 0.316897
v -0.475916 6.075684 0.259638
v -0.475916 6.054698 0.206237
v -0.475916 6.009822 0.170483
v -0.475916 5.953082 0.161957
v -0.475916 5.899681 0.182944
v -0.475916 5.863927 0.227819
v -0.475916 5.855401 0.284559
v -0.475916 5.876388 0.337961
v -0.475916 5.921263 0.373714
v -0.475916 5.978004 0.382240
v -0.475916 6.031404 0.361254
v -0.475916 6.067158 0.316378
v -0.403575 6.070973 0.260171
v -0.405514 6.050113 0.206755
v -0.410809 6.005582 0.170963
v -0.418043 5.949313 0.162384
v -0.425277 5.896383 0.183317
v -0.430573 5.860974 0.228153
v -0.432511 5.852574 0.284879
v -0.430573 5.873435 0.338295
v -0.425277 5.917965 0.374087
v -0.418043 5.974234 0.382666
v -0.410809 6.027164 0.361733
v -0.405514 6.062573 0.316897
v -0.332473 6.056919 0.261761
v -0.336317 6.036436 0.208303
v -0.346817 5.992934 0.172394
v -0.361162 5.938070 0.163655
v -0.375506 5.886545 0.184430
v -0.386007 5.852165 0.229150
v -0.389850 5.844142 0.285833
v -0.386007 5.864626 0.339291
v -0.375506 5.908128 0.375200
v -0.361162 5.962991 0.383938
v -0.346817 6.014516 0.363164
v -0.336317 6.048896 0.318444
v -0.263825 6.033764 0.264380
v -0.269507 6.013901 0.210852
v -0.285034 5.972094 0.174751
v -0.306243 5.919546 0.165751
v -0.327452 5.870337 0.186263
v -0.342978 5.837652 0.230792
v -0.348661 5.830249 0.287405
v -0.342978 5.850112 0.340933
v -0.327452 5.891919 0.377034
v -0.306243 5.944467 0.386034
v -0.285034 5.993677 0.365522
v -0.269507 6.026361 0.320994
v -0.198805 6.001903 0.267985
v -0.206230 5.982894 0.214360
v -0.226516 5.943419 0.177995
v -0.254227 5.894057 0.168635
v -0.281938 5.848034 0.188787
v -0.302224 5.817681 0.233051
v -0.309649 5.811132 0.289568
v -0.302224 5.830142 0.343193
v -0.281938 5.869617 0.379557
v -0.254227 5.918979 0.388918
v -0.226516 5.965002 0.368766
v -0.206230 5.995355 0.324501
v -0.138528 5.961883 0.272513
v -0.147568 5.943945 0.218766
v -0.172266 5.907401 0.182070
v -0.206005 5.862041 0.172257
v -0.239744 5.820019 0.191956
v -0.264443 5.792597 0.235889
v -0.273483 5.787120 0.292284
v -0.264443 5.805058 0.346030
v -0.239744 5.841602 0.382727
v -0.206005 5.886962 0.392540
v -0.172266 5.928983 0.372841
v -0.147568 5.956406 0.328908
v -0.084023 5.914386 0.277886
v -0.094524 5.897721 0.223996
v -0.123212 5.864654 0.186906
v -0.162401 5.824043 0.176556
v -0.201591 5.786772 0.195717
v -0.230279 5.762826 0.239257
v -0.240780 5.758622 0.295508
v -0.230279 5.775287 0.349399
v -0.201591 5.808354 0.386488
v -0.162401 5.848965 0.396839
v -0.123212 5.886236 0.377677
v -0.094524 5.910182 0.334137
v -0.036223 5.860226 0.284013
v -0.048004 5.845013 0.229959
v -0.080192 5.815910 0.192421
v -0.124161 5.780715 0.181458
v -0.168131 5.748860 0.200007
v -0.200318 5.728879 0.243098
v -0.212100 5.726126 0.299185
v -0.200318 5.741340 0.353239
v -0.168131 5.770442 0.390777
v -0.124161 5.805637 0.401740
v -0.080192 5.837492 0.383192
v -0.048004 5.857473 0.340100
v 0.004053 5.800331 0.290790
v -0.008807 5.786722 0.236554
v -0.043944 5.762004 0.198519
v -0.091940 5.732799 0.186879
v -0.139937 5.706933 0.204750
v -0.175074 5.691337 0.247345
v -0.187934 5.690189 0.303250
v -0.175074 5.703797 0.357486
v -0.139937 5.728516 0.395521
v -0.091940 5.757720 0.407161
v -0.043944 5.783587 0.389290
v -0.008807 5.799183 0.346695
v 0.036117 5.735723 0.298099
v 0.022397 5.723846 0.243667
v -0.015086 5.703857 0.205098
v -0.066289 5.681113 0.192726
v -0.117493 5.661708 0.209866
v -0.154976 5.650841 0.251926
v -0.168696 5.651425 0.307636
v -0.154976 5.663302 0.362068
v -0.117493 5.683291 0.400637
v -0.066289 5.706035 0.413009
v -0.015086 5.725440 0.395868
v 0.022397 5.736307 0.353808
v 0.059420 5.667510 0.305816
v 0.045076 5.657461 0.251177
v 0.005887 5.642466 0.212043
v -0.047647 5.626543 0.198900
v -0.101180 5.613959 0.215268
v -0.140370 5.608086 0.256763
v -0.154714 5.610497 0.312266
v -0.140370 5.620546 0.366905
v -0.101180 5.635541 0.406039
v -0.047647 5.651464 0.419183
v 0.005887 5.664048 0.402814
v 0.045076 5.669921 0.361319
v 0.073563 5.596859 0.313809
v 0.058840 5.588702 0.258956
v 0.018616 5.578879 0.219237
v -0.036332 5.570022 0.205294
v -0.091280 5.564503 0.220864
v -0.131505 5.563801 0.261773
v -0.146228 5.568106 0.317062
v -0.131505 5.576262 0.371915
v -0.091280 5.586085 0.411634
v -0.036332 5.594943 0.425577
v 0.018616 5.600461 0.410008
v 0.058840 5.601163 0.369098
vn 0.964000 -0.091800 -0.249600
vn 0.706300 -0.125400 -0.696700
vn 0.258800 -0.125400 -0.957800
vn -0.258800 -0.091700 -0.961600
vn -0.706300 -0.033400 -0.707100
vn -0.964000 0.033700 -0.263800
vn -0.964000 0.091800 0.249600
vn -0.706400 0.125400 0.696700
vn -0.258800 0.125400 0.957800
vn 0.258800 0.091700 0.961600
vn 0.706300 0.033400 0.707100
vn 0.964000 -0.033700 0.263800
vn 0.947500 -0.216300 -0.235500
vn 0.694300 -0.216600 -0.686300
vn 0.254400 -0.158800 -0.954000
vn -0.254400 -0.058300 -0.965400
vn -0.694300 0.057800 -0.717400
vn -0.947500 0.158200 -0.277900
vn -0.947500 0.216300 0.235500
vn -0.694300 0.216600 0.686300
vn -0.254400 0.158800 0.954000
vn 0.254400 0.058300 0.965400
vn 0.694300 -0.057800 0.717400
vn 0.947500 -0.158200 0.277800
vn 0.914800 -0.337600 -0.221800
vn 0.670300 -0.305500 -0.676300
vn 0.245600 -0.191400 -0.950300
vn -0.245600 -0.025700 -0.969000
vn -0.670300 0.146700 -0.727400
vn -0.914800 0.279500 -0.291600
vn -0.914800 0.337600 0.221800
vn -0.670300 0.305500 0.676300
vn -0.245600 0.191400 0.950300
vn 0.245600 0.025700 0.969000
vn 0.670300 -0.146700 0.727500
vn 0.914800 -0.279500 0.291600
vn 0.866400 -0.453600 -0.208600
vn 0.634900 -0.390500 -0.666700
vn 0.232600 -0.222500 -0.946800
vn -0.232600 0.005400 -0.972600
vn -0.634900 0.231700 -0.737100
vn -0.866400 0.395500 -0.304700
vn -0.866400 0.453600 0.208600
vn -0.634900 0.390500 0.666700
vn -0.232600 0.222500 0.946800
vn 0.232600 -0.005400 0.972600
vn 0.634900 -0.231700 0.737100
vn 0.866400 -0.395500 0.304700
vn 0.803300 -0.562400 -0.196300
vn 0.588600 -0.470200 -0.657700
vn 0.215600 -0.251700 -0.943500
vn -0.215600 0.034600 -0.975900
vn -0.588600 0.311400 -0.746100
vn -0.803300 0.504300 -0.317000
vn -0.803300 0.562400 0.196300
vn -0.588600 0.470200 0.657700
vn -0.215600 0.251700 0.943500
vn 0.215600 -0.034600 0.975900
vn 0.588600 -0.311400 0.746100
vn 0.803300 -0.504300 0.317000
vn 0.726300 -0.662000 -0.185100
vn 0.532200 -0.543200 -0.649400
vn 0.195000 -0.278500 -0.940400
vn -0.195000 0.061300 -0.978900
vn -0.532200 0.384400 -0.754300
vn -0.726300 0.603900 -0.328300
vn -0.726300 0.662000 0.185100
vn -0.532200 0.543200 0.649400
vn -0.195000 0.278500 0.940400
vn 0.195000 -0.061300 0.978900
vn 0.532200 -0.384400 0.754300
vn 0.726300 -0.603900 0.328300
vn 0.637000 -0.750800 -0.175000
vn 0.466700 -0.608200 -0.642000
vn 0.171000 -0.302300 -0.937700
vn -0.171000 0.085200 -0.981600
vn -0.466700 0.449400 -0.761700
vn -0.637000 0.692700 -0.338300
vn -0.637000 0.750800 0.175000
vn -0.466700 0.608200 0.642100
vn -0.171000 0.302300 0.937700
vn 0.171000 -0.085200 0.981600
vn 0.466700 -0.449400 0.761700
vn 0.637000 -0.692700 0.338300
vn 0.536700 -0.827200 -0.166400
vn 0.393300 -0.664200 -0.635700
vn 0.144100 -0.322800 -0.935400
vn -0.144100 0.105700 -0.983900
vn -0.393300 0.505400 -0.768000
vn -0.536700 0.769100 -0.347000
vn -0.536700 0.827200 0.166400
vn -0.393300 0.664200 0.635700
vn -0.144100 0.322800 0.935400
vn 0.144100 -0.105700 0.983900
vn 0.393300 -0.505400 0.768000
vn 0.536700 -0.769100 0.347000
vn 0.427300 -0.890000 -0.159300
vn 0.313100 -0.710200 -0.630500
vn 0.114700 -0.339700 -0.933500
vn -0.114700 0.122500 -0.985800
vn -0.313100 0.551400 -0.773200
vn -0.427300 0.831900 -0.354100
vn -0.427300 0.890000 0.159300
vn -0.313100 0.710200 0.630500
vn -0.114700 0.339700 0.933500
vn 0.114700 -0.122500 0.985800
vn 0.313100 -0.551400 0.773200
vn 0.427300 -0.831900 0.354100
vn 0.310500 -0.938000 -0.153800
vn 0.227500 -0.745500 -0.626500
vn 0.083400 -0.352600 -0.932100
vn -0.083400 0.135400 -0.987300
vn -0.227500 0.586600 -0.777200
vn -0.310500 0.880000 -0.359500
vn -0.310500 0.938000 0.153800
vn -0.227500 0.745500 0.626500
vn -0.083400 0.352600 0.932100
vn 0.083400 -0.135400 0.987300
vn 0.227500 -0.586600 0.777200
vn 0.310500 -0.880000 0.359500
vn 0.188500 -0.970500 -0.150100
vn 0.138100 -0.769300 -0.623800
vn 0.050600 -0.361300 -0.931100
vn -0.050600 0.144200 -0.988300
vn -0.138100 0.610500 -0.779900
vn -0.188500 0.912500 -0.363200
vn -0.188500 0.970500 0.150100
vn -0.138100 0.769300 0.623800
vn -0.050600 0.361300 0.931100
vn 0.050600 -0.144200 0.988300
vn 0.138100 -0.610500 0.779900
vn 0.188500 -0.912500 0.363200
vn 0.063200 -0.986900 -0.148300
vn 0.046300 -0.781300 -0.622500
vn 0.017000 -0.365700 -0.930600
vn -0.017000 0.148600 -0.988800
vn -0.046300 0.622500 -0.781300
vn -0.063200 0.928800 -0.365000
vn -0.063200 0.986900 0.148300
vn -0.046300 0.781300 0.622500
vn -0.017000 0.365700 0.930600
vn 0.017000 -0.148600 0.988800
vn 0.046300 -0.622500 0.781300
vn 0.063200 -0.928800 0.365000
vn -0.063200 -0.986900 -0.148300
vn -0.046300 -0.781300 -0.622500
vn -0.017000 -0.365700 -0.930600
vn 0.017000 0.148600 -0.988800
vn 0.046300 0.622500 -0.781300
vn 0.063200 0.928800 -0.365000
vn 0.063200 0.986900 0.148300
vn 0.046300 0.781300 0.622500
vn 0.017000 0.365700 0.930600
vn -0.017000 -0.148600 0.988800
vn -0.046300 -0.622500 0.781300
vn -0.063200 -0.928900 0.365000
vn -0.188500 -0.970500 -0.150100
vn -0.138100 -0.769300 -0.623800
vn -0.050600 -0.361300 -0.931100
vn 0.050600 0.144200 -0.988300
vn 0.138100 0.610500 -0.779900
vn 0.188500 0.912500 -0.363200
vn 0.188500 0.970500 0.150200
vn 0.138100 0.769300 0.623800
vn 0.050600 0.361300 0.931100
vn -0.050600 -0.144200 0.988300
vn -0.138100 -0.610500 0.779900
vn -0.188500 -0.912500 0.363200
vn -0.310500 -0.938000 -0.153800
vn -0.227500 -0.745500 -0.626500
vn -0.083400 -0.352600 -0.932100
vn 0.083400 0.135400 -0.987300
vn 0.227500 0.586600 -0.777200
vn 0.310500 0.880000 -0.359500
vn 0.310500 0.938000 0.153800
vn 0.227500 0.745500 0.626500
vn 0.083400 0.352600 0.932100
vn -0.083400 -0.135400 0.987300
vn -0.227500 -0.586600 0.777200
vn -0.310500 -0.880000 0.359500
vn -0.427300 -0.890000 -0.159300
vn -0.313100 -0.710200 -0.630500
vn -0.114700 -0.339700 -0.933500
vn 0.114700 0.122500 -0.985800
vn 0.313100 0.551400 -0.773200
vn 0.427300 0.831900 -0.354100
vn 0.427300 0.890000 0.159300
vn 0.313100 0.710200 0.630500
vn 0.114700 0.339700 0.933500
vn -0.114700 -0.122500 0.985800
vn -0.313100 -0.551400 0.773200
vn -0.427300 -0.831900 0.354100
vn -0.536700 -0.827200 -0.166400
vn -0.393300 -0.664200 -0.635700
vn -0.144100 -0.322800 -0.935400
vn 0.144100 0.105700 -0.983900
vn 0.393300 0.505400 -0.768000
vn 0.536700 0.769100 -0.347000
vn 0.536700 0.827200 0.166400
vn 0.393300 0.664200 0.635700
vn 0.144100 0.322800 0.935400
vn -0.144100 -0.105700 0.983900
vn -0.393300 -0.505400 0.768000
vn -0.536700 -0.769100 0.347000
vn -0.637000 -0.750800 -0.175000
vn -0.466700 -0.608200 -0.642000
vn -0.171000 -0.302300 -0.937700
vn 0.171000 0.085200 -0.981600
vn 0.466700 0.449400 -0.761700
vn 0.637000 0.692700 -0.338300
vn 0.637000 0.750800 0.175000
vn 0.466700 0.608200 0.642000
vn 0.171000 0.302300 0.937700
vn -0.171000 -0.085200 0.981600
vn -0.466700 -0.449400 0.761700
vn -0.637000 -0.692700 0.338300
vn -0.726300 -0.662000 -0.185100
vn -0.532200 -0.543200 -0.649400
vn -0.195000 -0.278500 -0.940400
vn 0.195000 0.061300 -0.978900
vn 0.532200 0.384400 -0.754300
vn 0.726300 0.603900 -0.328300
vn 0.726300 0.662000 0.185100
vn 0.532200 0.543200 0.649400
vn 0.195000 0.278500 0.940400
vn -0.195000 -0.061300 0.978900
vn -0.532200 -0.384400 0.754300
vn -0.726300 -0.603900 0.328300
vn -0.803300 -0.562400 -0.196300
vn -0.588600 -0.470200 -0.657700
vn -0.215600 -0.251700 -0.943500
vn 0.215600 0.034600 -0.975900
vn 0.588600 0.311400 -0.746100
vn 0.803300 0.504300 -0.317000
vn 0.803300 0.562400 0.196300
vn 0.588600 0.470200 0.657700
vn 0.215600 0.251700 0.943500
vn -0.215600 -0.034600 0.975900
vn -0.588600 -0.311400 0.746100
vn -0.803300 -0.504300 0.317000
vn -0.866400 -0.453600 -0.208600
vn -0.634900 -0.390500 -0.666700
vn -0.232600 -0.222500 -0.946800
vn 0.232600 0.005400 -0.972600
vn 0.634900 0.231700 -0.737100
vn 0.866400 0.395500 -0.304700
vn 0.866400 0.453600 0.208600
vn 0.634900 0.390500 0.666700
vn 0.232600 0.222500 0.946800
vn -0.232600 -0.005400 0.972600
vn -0.634900 -0.231700 0.737100
vn -0.866400 -0.395500 0.304700
vn -0.914800 -0.337600 -0.221800
vn -0.670300 -0.305500 -0.676300
vn -0.245600 -0.191400 -0.950300
vn 0.245600 -0.025700 -0.969000
vn 0.670300 0.146700 -0.727400
vn 0.914800 0.279500 -0.291600
vn 0.914800 0.337600 0.221800
vn 0.670300 0.305500 0.676300
vn 0.245600 0.191400 0.950300
vn -0.245600 0.025700 0.969000
vn -0.670300 -0.146700 0.727400
vn -0.914800 -0.279500 0.291600
vn -0.947500 -0.216300 -0.235500
vn -0.694300 -0.216600 -0.686300
vn -0.254400 -0.158800 -0.954000
vn 0.254400 -0.058300 -0.965400
vn 0.694300 0.057800 -0.717400
vn 0.947500 0.158200 -0.277900
vn 0.947500 0.216300 0.235500
vn 0.694300 0.216600 0.686300
vn 0.254400 0.158800 0.954000
vn -0.254400 0.058300 0.965400
vn -0.694300 -0.057800 0.717400
vn -0.947500 -0.158200 0.277800
vn -0.964000 -0.091800 -0.249600
vn -0.706300 -0.125400 -0.696700
vn -0.258800 -0.125400 -0.957800
vn 0.258800 -0.091700 -0.961600
vn 0.706300 -0.033400 -0.707100
vn 0.964000 0.033700 -0.263800
vn 0.964000 0.091800 0.249600
vn 0.706400 0.125400 0.696700
vn 0.258800 0.125400 0.957800
vn -0.258800 0.091700 0.961600
vn -0.706300 0.033400 0.707100
vn -0.964000 -0.033700 0.263800
vn 0.706400 -0.125400 -0.696700
vn -0.706300 0.125400 0.696700
vn -0.947500 0.158200 -0.277800
vn 0.947500 -0.158200 0.277900
vn 0.803200 -0.504300 0.317000
vn -0.466700 0.608200 0.642000
vn 0.188500 -0.970500 -0.150200
vn -0.063200 0.928900 -0.365000
vn -0.063200 -0.928800 0.365000
vn -0.188500 -0.970500 -0.150200
vn 0.188500 0.970500 0.150100
vn -0.947500 -0.158200 0.277900
vn -0.706400 -0.125400 -0.696700
vn 0.706300 0.125400 0.696700
usemtl Material
s off
f 1//1 13//1 14//1 2//1
f 2//2 14//2 15//2 3//2
f 3//3 15//3 16//3 4//3
f 4//4 16//4 17//4 5//4
f 5//5 17//5 18//5 6//5
f 6//6 18//6 19//6 7//6
f 7//7 19//7 20//7 8//7
f 8//8 20//8 21//8 9//8
f 9//9 21//9 22//9 10//9
f 10//10 22//10 23//10 11//10
f 11//11 23//11 24//11 12//11
f 1//12 12//12 24//12 13//12
f 13//13 25//13 26//13 14//13
f 14//14 26//14 27//14 15//14
f 15//15 27//15 28//15 16//15
f 16//16 28//16 29//16 17//16
f 17//17 29//17 30//17 18//17
f 18//18 30//18 31//18 19//18
f 19//19 31//19 32//19 20//19
f 20//20 32//20 33//20 21//20
f 21//21 33//21 34//21 22//21
f 22//22 34//22 35//22 23//22
f 23//23 35//23 36//23 24//23
f 24//24 36//24 25//24 13//24
f 25//25 37//25 38//25 26//25
f 26//26 38//26 39//26 27//26
f 27//27 39//27 40//27 28//27
f 28//28 40//28 41//28 29//28
f 29//29 41//29 42//29 30//29
f 30//30 42//30 43//30 31//30
f 31//31 43//31 44//31 32//31
f 32//32 44//32 45//32 33//32
f 33//33 45//33 46//33 34//33
f 34//34 46//34 47//34 35//34
f 35//35 47//35 48//35 36//35
f 36//36 48//36 37//36 25//36
f 37//37 49//37 50//37 38//37
f 38//38 50//38 51//38 39//38
f 39//39 51//39 52//39 40//39
f 40//40 52//40 53//40 41//40
f 41//41 53//41 54//41 42//41
f 42//42 54//42 55//42 43//42
f 43//43 55//43 56//43 44//43
f 44//44 56//44 57//44 45//44
f 45//45 57//45 58//45 46//45
f 46//46 58//46 59//46 47//46
f 47//47 59//47 60//47 48//47
f 48//48 60//48 49//48 37//48
f 49//49 61//49 62//49 50//49
f 50//50 62//50 63//50 51//50
f 51//51 63//51 64//51 52//51
f 52//52 64//52 65//52 53//52
f 53//53 65//53 66//53 54//53
f 54//54 66//54 67//54 55//54
f 55//55 67//55 68//55 56//55
f 56//56 68//56 69//56 57//56
f 57//57 69//57 70//57 58//57
f 58//58 70//58 71//58 59//58
f 59//59 71//59 72//59 60//59
f 60//60 72//60 61//60 49//60
f 61//61 73//61 74//61 62//61
f 62//62 74//62 75//62 63//62
f 63//63 75//63 76//63 64//63
f 64//64 76//64 77//64 65//64
f 65//65 77//65 78//65 66//65
f 66//66 78//66 79//66 67//66
f 67//67 79//67 80//67 68//67
f 68//68 80//68 81//68 69//68
f 69//69 81//69 82//69 70//69
f 70//70 82//70 83//70 71//70
f 71//71 83//71 84//71 72//71
f 72//72 84//72 73//72 61//72
f 73//73 85//73 86//73 74//73
f 74//74 86//74 87//74 75//74
f 75//75 87//75 88//75 76//75
f 76//76 88//76 89//76 77//76
f 77//77 89//77 90//77 78//77
f 78//78 90//78 91//78 79//78
f 79//79 91//79 92//79 80//79
f 80//80 92//80 93//80 81//80
f 81//81 93//81 94//81 82//81
f 82//82 94//82 95//82 83//82
f 83//83 95//83 96//83 84//83
f 84//84 96//84 85//84 73//84
f 85//85 97//85 98//85 86//85
f 86//86 98//86 99//86 87//86
f 87//87 99//87 100//87 88//87
f 88//88 100//88 101//88 89//88
f 89//89 101//89 102//89 90//89
f 90//90 102//90 103//90 91//90
f 91//91 103//91 104//91 92//91
f 92//92 104//92 105//92 93//92
f 93//93 105//93 106//93 94//93
f 94//94 106//94 107//94 95//94
f 95//95 107//95 108//95 96//95
f 96//96 108//96 97//96 85//96
f 97//97 109//97 110//97 98//97
f 98//98 110//98 111//98 99//98
f 99//99 111//99 112//99 100//99
f 100//100 112//100 113//100 101//100
f 101//101 113//101 114//101 102//101
f 102//102 114//102 115//102 103//102
f 103//103 115//103 116//103 104//103
f 104//104 116//104 117//104 105//104
f 105//105 117//105 118//105 106//105
f 106//106 118//106 119//106 107//106
f 107//107 119//107 120//107 108//107
f 108//108 120//108 109//108 97//108
f 109//109 121//109 122//109 110//109
f 110//110 122//110 123//110 111//110
f 111//111 123//111 124//111 112//111
f 112//112 124//112 125//112 113//112
f 113//113 125//113 126//113 114//113
f 114//114 126//114 127//114 115//114
f 115//115 127//115 128//115 116//115
f 116//116 128//116 129//116 117//116
f 117//117 129//117 130//117 118//117
f 118//118 130//118 131//118 119//118
f 119//119 131//119 132//119 120//119
f 120//120 132//120 121//120 109//120
f 121//121 133//121 134//121 122//121
f 122//122 134//122 135//122 123//122
f 123//123 135//123 136//123 124//123
f 124//124 136//124 137//124 125//124
f 125//125 137//125 138//125 126//125
f 126//126 138//126 139//126 127//126
f 127//127 139//127 140//127 128//127
f 128//128 140//128 141//128 129//128
f 129//129 141//129 142//129 130//129
f 130//130 142//130 143//130 131//130
f 131//131 143//131 144//131 132//131
f 132//132 144//132 133//132 121//132
f 133//133 145//133 146//133 134//133
f 134//134 146//134 147//134 135//134
f 135//135 147//135 148//135 136//135
f 136//136 148//136 149//136 137//136
f 137//137 149//137 150//137 138//137
f 138//138 150//138 151//138 139//138
f 139//139 151//139 152//139 140//139
f 140//140 152//140 153//140 141//140
f 141//141 153//141 154//141 142//141
f 142//142 154//142 155//142 143//142
f 143//143 155//143 156//143 144//143
f 144//144 156//144 145//144 133//144
f 145//145 157//145 158//145 146//145
f 146//146 158//146 159//146 147//146
f 147//147 159//147 160//147 148//147
f 148//148 160//148 161//148 149//148
f 149//149 161//149 162//149 150//149
f 150//150 162//150 163//150 151//150
f 151//151 163//151 164//151 152//151
f 152//152 164//152 165//152 153//152
f 153//153 165//153 166//153 154//153
f 154//154 166//154 167//154 155//154
f 155//155 167//155 168//155 156//155
f 156//156 168//156 157//156 145//156
f 157//157 169//157 170//157 158//157
f 158//158 170//158 171//158 159//158
f 159//159 171//159 172//159 160//159
f 160//160 172//160 173//160 161//160
f 161//161 173//161 174//161 162//161
f 162//162 174//162 175//162 163//162
f 163//163 175//163 176//163 164//163
f 164//164 176//164 177//164 165//164
f 165//165 177//165 178//165 166//165
f 166//166 178//166 179//166 167//166
f 167//167 179//167 180//167 168//167
f 168//168 180//168 169//168 157//168
f 169//169 181//169 182//169 170//169
f 170//170 182//170 183//170 171//170
f 171//171 183//171 184//171 172//171
f 172//172 184//172 185//172 173//172
f 173//173 185//173 186//173 174//173
f 174//174 186//174 187//174 175//174
f 175//175 187//175 188//175 176//175
f 176//176 188//176 189//176 177//176
f 177//177 189//177 190//177 178//177
f 178//178 190//178 191//178 179//178
f 179//179 191//179 192//179 180//179
f 180//180 192//180 181//180 169//180
f 181//181 193//181 194//181 182//181
f 182//182 194//182 195//182 183//182
f 183//183 195//183 196//183 184//183
f 184//184 196//184 197//184 185//184
f 185//185 197//185 198//185 186//185
f 186//186 198//186 199//186 187//186
f 187//187 199//187 200//187 188//187
f 188//188 200//188 201//188 189//188
f 189//189 201//189 202//189 190//189
f 190//190 202//190 203//190 191//190
f 191//191 203//191 204//191 192//191
f 192//192 204//192 193//192 181//192
f 193//193 205//193 206//193 194//193
f 194//194 206//194 207//194 195//194
f 195//195 207//195 208//195 196//195
f 196//196 208//196 209//196 197//196
f 197//197 209//197 210//197 198//197
f 198//198 210//198 211//198 199//198
f 199//199 211//199 212//199 200//199
f 200//200 212//200 213//200 201//200
f 201//201 213//201 214//201 202//201
f 202//202 214//202 215//202 203//202
f 203//203 215//203 216//203 204//203
f 204//204 216//204 205//204 193//204
f 205//205 217//205 218//205 206//205
f 206//206 218//206 219//206 207//206
f 207//207 219//207 220//207 208//207
f 208//208 220//208 221//208 209//208
f 209//209 221//209 222//209 210//209
f 210//210 222//210 223//210 211//210
f 211//211 223//211 224//211 212//211
f 212//212 224//212 225//212 213//212
f 213//213 225//213 226//213 214//213
f 214//214 226//214 227//214 215//214
f 215//215 227//215 228//215 216//215
f 216//216 228//216 217//216 205//216
f 217//217 229//217 230//217 218//217
f 218//218 230//218 231//218 219//218
f 219//219 231//219 232//219 220//219
f 220//220 232//220 233//220 221//220
f 221//221 233//221 234//221 222//221
f 222//222 234//222 235//222 223//222
f 223//223 235//223 236//223 224//223
f 224//224 236//224 237//224 225//224
f 225//225 237//225 238//225 226//225
f 226//226 238//226 239//226 227//226
f 227//227 239//227 240//227 228//227
f 228//228 240//228 229//228 217//228
f 229//229 241//229 242//229 230//229
f 230//230 242//230 243//230 231//230
f 231//231 243//231 244//231 232//231
f 232//232 244//232 245//232 233//232
f 233//233 245//233 246//233 234//233
f 234//234 246//234 247//234 235//234
f 235//235 247//235 248//235 236//235
f 236//236 248//236 249//236 237//236
f 237//237 249//237 250//237 238//237
f 238//238 250//238 251//238 239//238
f 239//239 251//239 252//239 240//239
f 240//240 252//240 241//240 229//240
f 241//241 253//241 254//241 242//241
f 242//242 254//242 255//242 243//242
f 243//243 255//243 256//243 244//243
f 244//244 256//244 257//244 245//244
f 245//245 257//245 258//245 246//245
f 246//246 258//246 259//246 247//246
f 247//247 259//247 260//247 248//247
f 248//248 260//248 261//248 249//248
f 249//249 261//249 262//249 250//249
f 250//250 262//250 263//250 251//250
f 251//251 263//251 264//251 252//251
f 252//252 264//252 253//252 241//252
f 253//253 265//253 266//253 254//253
f 254//254 266//254 267//254 255//254
f 255//255 267//255 268//255 256//255
f 256//256 268//256 269//256 257//256
f 257//257 269//257 270//257 258//257
f 258//258 270//258 271//258 259//258
f 259//259 271//259 272//259 260//259
f 260//260 272//260 273//260 261//260
f 261//261 273//261 274//261 262//261
f 262//262 274//262 275//262 263//262
f 263//263 275//263 276//263 264//263
f 264//264 276//264 265//264 253//264
f 265//265 277//265 278//265 266//265
f 266//266 278//266 279//266 267//266
f 267//267 279//267 280//267 268//267
f 268//268 280//268 281//268 269//268
f 269//269 281//269 282//269 270//269
f 270//270 282//270 283//270 271//270
f 271//271 283//271 284//271 272//271
f 272//272 284//272 285//272 273//272
f 273//273 285//273 286//273 274//273
f 274//274 286//274 287//274 275//274
f 275//275 287//275 288//275 276//275
f 276//276 288//276 277//276 265//276
f 277//277 289//277 290//277 278//277
f 278//278 290//278 291//278 279//278
f 279//279 291//279 292//279 280//279
f 280//280 292//280 293//280 281//280
f 281//281 293//281 294//281 282//281
f 282//282 294//282 295//282 283//282
f 283//283 295//283 296//283 284//283
f 284//284 296//284 297//284 285//284
f 285//285 297//285 298//285 286//285
f 286//286 298//286 299//286 287//286
f 287//287 299//287 300//287 288//287
f 288//288 300//288 289//288 277//288
f 289//6 301//6 302//6 290//6
f 290//5 302//5 303//5 291//5
f 291//4 303//4 304//4 292//4
f 292//3 304//3 305//3 293//3
f 293//289 305//289 306//289 294//289
f 294//1 306//1 307//1 295//1
f 295//12 307//12 308//12 296//12
f 296//11 308//11 309//11 297//11
f 297//10 309//10 310//10 298//10
f 298//9 310//9 311//9 299//9
f 299//290 311//290 312//290 300//290
f 300//7 312//7 301//7 289//7
f 301//291 313//291 314//291 302//291
f 302//17 314//17 315//17 303//17
f 303//16 315//16 316//16 304//16
f 304//15 316//15 317//15 305//15
f 305//14 317//14 318//14 306//14
f 306//13 318//13 319//13 307//13
f 307//292 319//292 320//292 308//292
f 308//23 320//23 321//23 309//23
f 309//22 321//22 322//22 310//22
f 310//21 322//21 323//21 311//21
f 311//20 323//20 324//20 312//20
f 312//19 324//19 313//19 301//19
f 313//30 325//30 326//30 314//30
f 314//29 326//29 327//29 315//29
f 315//28 327//28 328//28 316//28
f 316//27 328//27 329//27 317//27
f 317//26 329//26 330//26 318//26
f 318//25 330//25 331//25 319//25
f 319//36 331//36 332//36 320//36
f 320//35 332//35 333//35 321//35
f 321//34 333//34 334//34 322//34
f 322//33 334//33 335//33 323//33
f 323//32 335//32 336//32 324//32
f 324//31 336//31 325//31 313//31
f 325//42 337//42 338//42 326//42
f 326//41 338//41 339//41 327//41
f 327//40 339//40 340//40 328//40
f 328//39 340//39 341//39 329//39
f 329//38 341//38 342//38 330//38
f 330//37 342//37 343//37 331//37
f 331//48 343//48 344//48 332//48
f 332//47 344//47 345//47 333//47
f 333//46 345//46 346//46 334//46
f 334//45 346//45 347//45 335//45
f 335//44 347//44 348//44 336//44
f 336//43 348//43 337//43 325//43
f 337//54 349//54 350//54 338//54
f 338//53 350//53 351//53 339//53
f 339//52 351//52 352//52 340//52
f 340//51 352//51 353//51 341//51
f 341//50 353//50 354//50 342//50
f 342//49 354//49 355//49 343//49
f 343//293 355//293 356//293 344//293
f 344//59 356//59 357//59 345//59
f 345//58 357//58 358//58 346//58
f 346//57 358//57 359//57 347//57
f 347//56 359//56 360//56 348//56
f 348//55 360//55 349//55 337//55
f 349//66 361//66 362//66 350//66
f 350//65 362//65 363//65 351//65
f 351//64 363//64 364//64 352//64
f 352//63 364//63 365//63 353//63
f 353//62 365//62 366//62 354//62
f 354//61 366//61 367//61 355//61
f 355//72 367//72 368//72 356//72
f 356//71 368//71 369//71 357//71
f 357//70 369//70 370//70 358//70
f 358//69 370//69 371//69 359//69
f 359//68 371//68 372//68 360//68
f 360//67 372//67 361//67 349//67
f 361//78 373//78 374//78 362//78
f 362//77 374//77 375//77 363//77
f 363//76 375//76 376//76 364//76
f 364//75 376//75 377//75 365//75
f 365//74 377//74 378//74 366//74
f 366//73 378//73 379//73 367//73
f 367//84 379//84 380//84 368//84
f 368//83 380//83 381//83 369//83
f 369//82 381//82 382//82 370//82
f 370//81 382//81 383//81 371//81
f 371//294 383//294 384//294 372//294
f 372//79 384//79 373//79 361//79
f 373//90 385//90 386//90 374//90
f 374//89 386//89 387//89 375//89
f 375//88 387//88 388//88 376//88
f 376//87 388//87 389//87 377//87
f 377//86 389//86 390//86 378//86
f 378//85 390//85 391//85 379//85
f 379//96 391//96 392//96 380//96
f 380//95 392//95 393//95 381//95
f 381//94 393//94 394//94 382//94
f 382//93 394//93 395//93 383//93
f 383//92 395//92 396//92 384//92
f 384//91 396//91 385//91 373//91
f 385//102 397//102 398//102 386//102
f 386//101 398//101 399//101 387//101
f 387//100 399//100 400//100 388//100
f 388//99 400//99 401//99 389//99
f 389//98 401//98 402//98 390//98
f 390//97 402//97 403//97 391//97
f 391//108 403//108 404//108 392//108
f 392//107 404//107 405//107 393//107
f 393//106 405//106 406//106 394//106
f 394//105 406//105 407//105 395//105
f 395//104 407//104 408//104 396//104
f 396//103 408//103 397//103 385//103
f 397//114 409//114 410//114 398//114
f 398//113 410//113 411//113 399//113
f 399//112 411//112 412//112 400//112
f 400//111 412//111 413//111 401//111
f 401//110 413//110 414//110 402//110
f 402//109 414//109 415//109 403//109
f 403//120 415//120 416//120 404//120
f 404//119 416//119 417//119 405//119
f 405//118 417//118 418//118 406//118
f 406//117 418//117 419//117 407//117
f 407//116 419//116 420//116 408//116
f 408//115 420//115 409//115 397//115
f 409//126 421//126 422//126 410//126
f 410//125 422//125 423//125 411//125
f 411//124 423//124 424//124 412//124
f 412//123 424//123 425//123 413//123
f 413//122 425//122 426//122 414//122
f 414//295 426//295 427//295 415//295
f 415//132 427//132 428//132 416//132
f 416//131 428//131 429//131 417//131
f 417//130 429//130 430//130 418//130
f 418//129 430//129 431//129 419//129
f 419//128 431//128 432//128 420//128
f 420//127 432//127 421//127 409//127
f 421//296 433//296 434//296 422//296
f 422//137 434//137 435//137 423//137
f 423//136 435//136 436//136 424//136
f 424//135 436//135 437//135 425//135
f 425//134 437//134 438//134 426//134
f 426//133 438//133 439//133 427//133
f 427//144 439//144 440//144 428//144
f 428//143 440//143 441//143 429//143
f 429//142 441//142 442//142 430//142
f 430//141 442//141 443//141 431//141
f 431//140 443//140 444//140 432//140
f 432//139 444//139 433//139 421//139
f 433//150 445//150 446//150 434//150
f 434//149 446//149 447//149 435//149
f 435//148 447//148 448//148 436//148
f 436//147 448//147 449//147 437//147
f 437//146 449//146 450//146 438//146
f 438//145 450//145 451//145 439//145
f 439//297 451//297 452//297 440//297
f 440//155 452//155 453//155 441//155
f 441//154 453//154 454//154 442//154
f 442//153 454//153 455//153 443//153
f 443//152 455//152 456//152 444//152
f 444//151 456//151 445//151 433//151
f 445//162 457//162 458//162 446//162
f 446//161 458//161 459//161 447//161
f 447//160 459//160 460//160 448//160
f 448//159 460//159 461//159 449//159
f 449//158 461//158 462//158 450//158
f 450//298 462//298 463//298 451//298
f 451//168 463//168 464//168 452//168
f 452//167 464//167 465//167 453//167
f 453//166 465//166 466//166 454//166
f 454//165 466//165 467//165 455//165
f 455//164 467//164 468//164 456//164
f 456//299 468//299 457//299 445//299
f 457//174 469//174 470//174 458//174
f 458//173 470//173 471//173 459//173
f 459//172 471//172 472//172 460//172
f 460//171 472//171 473//171 461//171
f 461//170 473//170 474//170 462//170
f 462//169 474//169 475//169 463//169
f 463//180 475//180 476//180 464//180
f 464//179 476//179 477//179 465//179
f 465//178 477//178 478//178 466//178
f 466//177 478//177 479//177 467//177
f 467//176 479//176 480//176 468//176
f 468//175 480//175 469//175 457//175
f 469//186 481//186 482//186 470//186
f 470//185 482//185 483//185 471//185
f 471//184 483//184 484//184 472//184
f 472//183 484//183 485//183 473//183
f 473//182 485//182 486//182 474//182
f 474//181 486//181 487//181 475//181
f 475//192 487//192 488//192 476//192
f 476//191 488//191 489//191 477//191
f 477//190 489//190 490//190 478//190
f 478//189 490//189 491//189 479//189
f 479//188 491//188 492//188 480//188
f 480//187 492//187 481//187 469//187
f 481//198 493//198 494//198 482//198
f 482//197 494//197 495//197 483//197
f 483//196 495//196 496//196 484//196
f 484//195 496//195 497//195 485//195
f 485//194 497//194 498//194 486//194
f 486//193 498//193 499//193 487//193
f 487//204 499//204 500//204 488//204
f 488//203 500//203 501//203 489//203
f 489//202 501//202 502//202 490//202
f 490//201 502//201 503//201 491//201
f 491//200 503//200 504//200 492//200
f 492//199 504//199 493//199 481//199
f 493//210 505//210 506//210 494//210
f 494//209 506//209 507//209 495//209
f 495//208 507//208 508//208 496//208
f 496//207 508//207 509//207 497//207
f 497//206 509//206 510//206 498//206
f 498//205 510//205 511//205 499//205
f 499//216 511//216 512//216 500//216
f 500//215 512//215 513//215 501//215
f 501//214 513//214 514//214 502//214
f 502//213 514//213 515//213 503//213
f 503//212 515//212 516//212 504//212
f 504//211 516//211 505//211 493//211
f 505//222 517//222 518//222 506//222
f 506//221 518//221 519//221 507//221
f 507//220 519//220 520//220 508//220
f 508//219 520//219 521//219 509//219
f 509//218 521//218 522//218 510//218
f 510//217 522//217 523//217 511//217
f 511//228 523//228 524//228 512//228
f 512//227 524//227 525//227 513//227
f 513//226 525//226 526//226 514//226
f 514//225 526//225 527//225 515//225
f 515//224 527//224 528//224 516//224
f 516//223 528//223 517//223 505//223
f 517//234 529//234 530//234 518//234
f 518//233 530//233 531//233 519//233
f 519//232 531//232 532//232 520//232
f 520//231 532//231 533//231 521//231
f 521//230 533//230 534//230 522//230
f 522//229 534//229 535//229 523//229
f 523//240 535//240 536//240 524//240
f 524//239 536//239 537//239 525//239
f 525//238 537//238 538//238 526//238
f 526//237 538//237 539//237 527//237
f 527//236 539//236 540//236 528//236
f 528//235 540//235 529//235 517//235
f 529//246 541//246 542//246 530//246
f 530//245 542//245 543//245 531//245
f 531//244 543//244 544//244 532//244
f 532//243 544//243 545//243 533//243
f 533//242 545//242 546//242 534//242
f 534//241 546//241 547//241 535//241
f 535//252 547//252 548//252 536//252
f 536//251 548//251 549//251 537//251
f 537//250 549//250 550//250 538//250
f 538//249 550//249 551//249 539//249
f 539//248 551//248 552//248 540//248
f 540//247 552//247 541//247 529//247
f 541//258 553//258 554//258 542//258
f 542//257 554//257 555//257 543//257
f 543//256 555//256 556//256 544//256
f 544//255 556//255 557//255 545//255
f 545//254 557//254 558//254 546//254
f 546//253 558//253 559//253 547//253
f 547//264 559//264 560//264 548//264
f 548//263 560//263 561//263 549//263
f 549//262 561//262 562//262 550//262
f 550//261 562//261 563//261 551//261
f 551//260 563//260 564//260 552//260
f 552//259 564//259 553//259 541//259
f 553//270 565//270 566//270 554//270
f 554//269 566//269 567//269 555//269
f 555//268 567//268 568//268 556//268
f 556//267 568//267 569//267 557//267
f 557//266 569//266 570//266 558//266
f 558//265 570//265 571//265 559//265
f 559//300 571//300 572//300 560//300
f 560//275 572//275 573//275 561//275
f 561//274 573//274 574//274 562//274
f 562//273 574//273 575//273 563//273
f 563//272 575//272 576//272 564//272
f 564//271 576//271 565//271 553//271
f 565//282 1//282 2//282 566//282
f 566//281 2//281 3//281 567//281
f 567//280 3//280 4//280 568//280
f 568//279 4//279 5//279 569//279
f 569//301 5//301 6//301 570//301
f 570//277 6//277 7//277 571//277
f 571//288 7//288 8//288 572//288
f 572//287 8//287 9//287 573//287
f 573//286 9//286 10//286 574//286
f 574//285 10//285 11//285 575//285
f 575//302 11//302 12//302 576//302
f 576//283 12//283 1//283 565//283
o Torus
v 1.198169 5.524977 0.321941
v 1.183318 5.518746 0.266871
v 1.142746 5.514185 0.226556
v 1.087324 5.512516 0.211800
v 1.031902 5.514185 0.226556
v 0.991331 5.518746 0.266871
v 0.976480 5.524977 0.321941
v 0.991331 5.531207 0.377012
v 1.031902 5.535768 0.417327
v 1.087324 5.537437 0.432083
v 1.142746 5.535768 0.417327
v 1.183318 5.531207 0.377012
v 1.193427 5.453095 0.330074
v 1.178704 5.448791 0.274785
v 1.138479 5.449492 0.233875
v 1.083531 5.455010 0.218306
v 1.028583 5.463868 0.232249
v 0.988359 5.473691 0.271968
v 0.973635 5.481848 0.326821
v 0.988359 5.486152 0.382109
v 1.028583 5.485451 0.423019
v 1.083531 5.479932 0.438589
v 1.138479 5.471075 0.424646
v 1.178704 5.461251 0.384926
v 1.179284 5.382443 0.338067
v 1.164940 5.380032 0.282564
v 1.125750 5.385905 0.241069
v 1.072217 5.398489 0.224700
v 1.018683 5.414412 0.237844
v 0.979494 5.429407 0.276978
v 0.965150 5.439456 0.331617
v 0.979494 5.441868 0.387119
v 1.018683 5.435995 0.428614
v 1.072217 5.423410 0.444983
v 1.125750 5.407488 0.431840
v 1.164940 5.392493 0.392705
v 1.155981 5.314230 0.345784
v 1.142261 5.313647 0.290074
v 1.104778 5.324513 0.248014
v 1.053574 5.343919 0.230874
v 1.002371 5.366663 0.243246
v 0.964888 5.386652 0.281815
v 0.951168 5.398529 0.336247
v 0.964888 5.399112 0.391957
v 1.002371 5.388246 0.434017
v 1.053574 5.368840 0.451157
v 1.104778 5.346096 0.438785
v 1.142261 5.326108 0.400216
v 1.123917 5.249623 0.353093
v 1.111056 5.250771 0.297188
v 1.075920 5.266367 0.254593
v 1.027923 5.292233 0.236721
v 0.979926 5.321438 0.248362
v 0.944790 5.346156 0.286397
v 0.931929 5.359765 0.340632
v 0.944790 5.358617 0.396538
v 0.979926 5.343020 0.439133
v 1.027923 5.317154 0.457004
v 1.075920 5.287950 0.445363
v 1.111056 5.263231 0.407329
v 1.083641 5.189727 0.359869
v 1.071859 5.192480 0.303782
v 1.039671 5.212461 0.260691
v 0.995702 5.244317 0.242142
v 0.951733 5.279511 0.253106
v 0.919545 5.308614 0.290644
v 0.907764 5.323827 0.344698
v 0.919545 5.321074 0.400785
v 0.951733 5.301094 0.443876
v 0.995702 5.269238 0.462425
v 1.039671 5.234044 0.451462
v 1.071859 5.204941 0.413924
v 1.035841 5.135568 0.365997
v 1.025340 5.139771 0.309746
v 0.996652 5.163717 0.266206
v 0.957462 5.200989 0.247044
v 0.918273 5.241599 0.257395
v 0.889585 5.274667 0.294484
v 0.879084 5.291331 0.348375
v 0.889585 5.287127 0.404626
v 0.918273 5.263182 0.448165
v 0.957462 5.225910 0.467327
v 0.996652 5.185300 0.456977
v 1.025340 5.152232 0.419887
v 0.981336 5.088071 0.371370
v 0.972296 5.093548 0.314975
v 0.947597 5.120971 0.271042
v 0.913859 5.162992 0.251343
v 0.880120 5.208352 0.261156
v 0.855421 5.244896 0.297852
v 0.846381 5.262834 0.351599
v 0.855421 5.257357 0.407994
v 0.880120 5.229934 0.451927
v 0.913859 5.187913 0.471626
v 0.947597 5.142553 0.461813
v 0.972296 5.106009 0.425116
v 0.921058 5.048050 0.375898
v 0.913633 5.054599 0.319381
v 0.893347 5.084951 0.275117
v 0.865636 5.130975 0.254965
v 0.837925 5.180337 0.264326
v 0.817639 5.219811 0.300690
v 0.810214 5.238821 0.354315
v 0.817639 5.232272 0.410832
v 0.837925 5.201920 0.455096
v 0.865636 5.155896 0.475248
v 0.893347 5.106534 0.465888
v 0.913633 5.067060 0.429523
v 0.856039 5.016190 0.379502
v 0.850356 5.023592 0.322889
v 0.834830 5.056277 0.278361
v 0.813621 5.105486 0.257849
v 0.792412 5.158034 0.266849
v 0.776886 5.199841 0.302950
v 0.771203 5.219705 0.356478
v 0.776886 5.212302 0.413091
v 0.792412 5.179617 0.457619
v 0.813621 5.130408 0.478132
v 0.834830 5.077859 0.469132
v 0.850356 5.036053 0.433031
v 0.787391 4.993034 0.382122
v 0.783547 5.001057 0.325439
v 0.773046 5.035437 0.280719
v 0.758702 5.086962 0.259944
v 0.744358 5.141826 0.268683
v 0.733857 5.185328 0.304592
v 0.730014 5.205812 0.358050
v 0.733857 5.197788 0.414733
v 0.744358 5.163408 0.459453
v 0.758702 5.111884 0.480227
v 0.773046 5.057020 0.471489
v 0.783547 5.013518 0.435580
v 0.716288 4.978981 0.383712
v 0.714350 4.987380 0.326986
v 0.709054 5.022789 0.282150
v 0.701820 5.075719 0.261216
v 0.694586 5.131988 0.269796
v 0.689291 5.176519 0.305588
v 0.687352 5.197379 0.359004
v 0.689291 5.188980 0.415730
v 0.694586 5.153571 0.460566
v 0.701820 5.100641 0.481499
v 0.709054 5.044372 0.472920
v 0.714350 4.999841 0.437128
v 0.643948 4.974269 0.384245
v 0.643948 4.982795 0.327505
v 0.643948 5.018549 0.282629
v 0.643948 5.071950 0.261643
v 0.643948 5.128690 0.270169
v 0.643948 5.173566 0.305922
v 0.643948 5.194552 0.359324
v 0.643948 5.186027 0.416064
v 0.643948 5.150273 0.460939
v 0.643948 5.096871 0.481926
v 0.643948 5.040132 0.473400
v 0.643948 4.995256 0.437646
v 0.571608 4.978981 0.383712
v 0.573546 4.987380 0.326986
v 0.578842 5.022789 0.282150
v 0.586076 5.075719 0.261216
v 0.593310 5.131988 0.269796
v 0.598605 5.176519 0.305588
v 0.600544 5.197379 0.359004
v 0.598605 5.188980 0.415730
v 0.593310 5.153571 0.460566
v 0.586076 5.100641 0.481499
v 0.578842 5.044372 0.472920
v 0.573546 4.999841 0.437128
v 0.500505 4.993034 0.382122
v 0.504349 5.001057 0.325439
v 0.514850 5.035437 0.280719
v 0.529194 5.086962 0.259944
v 0.543538 5.141826 0.268683
v 0.554039 5.185328 0.304592
v 0.557882 5.205812 0.358050
v 0.554039 5.197788 0.414733
v 0.543538 5.163408 0.459453
v 0.529194 5.111884 0.480227
v 0.514850 5.057020 0.471489
v 0.504349 5.013518 0.435580
v 0.431857 5.016190 0.379502
v 0.437540 5.023592 0.322889
v 0.453066 5.056277 0.278361
v 0.474275 5.105486 0.257849
v 0.495484 5.158034 0.266849
v 0.511010 5.199841 0.302950
v 0.516693 5.219704 0.356478
v 0.511010 5.212302 0.413091
v 0.495484 5.179617 0.457619
v 0.474275 5.130408 0.478132
v 0.453066 5.077859 0.469132
v 0.437540 5.036053 0.433031
v 0.366838 5.048050 0.375898
v 0.374263 5.054599 0.319381
v 0.394549 5.084951 0.275117
v 0.422260 5.130975 0.254965
v 0.449971 5.180337 0.264326
v 0.470257 5.219811 0.300690
v 0.477682 5.238821 0.354315
v 0.470257 5.232272 0.410832
v 0.449971 5.201920 0.455096
v 0.422260 5.155896 0.475248
v 0.394549 5.106534 0.465888
v 0.374263 5.067060 0.429523
v 0.306560 5.088071 0.371370
v 0.315600 5.093548 0.314975
v 0.340299 5.120971 0.271042
v 0.374038 5.162992 0.251343
v 0.407776 5.208352 0.261156
v 0.432475 5.244896 0.297852
v 0.441515 5.262834 0.351599
v 0.432475 5.257357 0.407994
v 0.407776 5.229934 0.451927
v 0.374038 5.187913 0.471626
v 0.340299 5.142553 0.461813
v 0.315600 5.106009 0.425116
v 0.252055 5.135568 0.365997
v 0.262556 5.139772 0.309746
v 0.291244 5.163717 0.266206
v 0.330434 5.200989 0.247044
v 0.369623 5.241599 0.257395
v 0.398311 5.274667 0.294484
v 0.408812 5.291331 0.348375
v 0.398311 5.287127 0.404626
v 0.369623 5.263182 0.448165
v 0.330434 5.225910 0.467327
v 0.291244 5.185300 0.456976
v 0.262556 5.152233 0.419887
v 0.204255 5.189727 0.359869
v 0.216037 5.192480 0.303782
v 0.248225 5.212461 0.260691
v 0.292194 5.244317 0.242142
v 0.336163 5.279511 0.253106
v 0.368351 5.308614 0.290644
v 0.380132 5.323827 0.344698
v 0.368351 5.321074 0.400785
v 0.336163 5.301094 0.443876
v 0.292194 5.269238 0.462425
v 0.248225 5.234044 0.451462
v 0.216037 5.204941 0.413924
v 0.163979 5.249623 0.353093
v 0.176840 5.250771 0.297188
v 0.211976 5.266367 0.254593
v 0.259973 5.292233 0.236721
v 0.307970 5.321438 0.248362
v 0.343106 5.346156 0.286397
v 0.355967 5.359765 0.340633
v 0.343106 5.358617 0.396538
v 0.307970 5.343020 0.439133
v 0.259973 5.317154 0.457004
v 0.211976 5.287950 0.445363
v 0.176840 5.263231 0.407329
v 0.131915 5.314230 0.345784
v 0.145635 5.313647 0.290074
v 0.183118 5.324513 0.248014
v 0.234322 5.343919 0.230874
v 0.285525 5.366663 0.243246
v 0.323008 5.386652 0.281815
v 0.336728 5.398529 0.336247
v 0.323008 5.399112 0.391957
v 0.285525 5.388246 0.434017
v 0.234322 5.368840 0.451157
v 0.183118 5.346096 0.438785
v 0.145635 5.326108 0.400216
v 0.108612 5.382443 0.338067
v 0.122956 5.380032 0.282564
v 0.162146 5.385905 0.241069
v 0.215679 5.398489 0.224700
v 0.269213 5.414412 0.237844
v 0.308402 5.429407 0.276978
v 0.322746 5.439456 0.331617
v 0.308402 5.441868 0.387119
v 0.269213 5.435995 0.428614
v 0.215679 5.423411 0.444983
v 0.162146 5.407488 0.431840
v 0.122956 5.392493 0.392705
v 0.094469 5.453095 0.330074
v 0.109192 5.448791 0.274785
v 0.149417 5.449492 0.233875
v 0.204365 5.455010 0.218306
v 0.259313 5.463868 0.232249
v 0.299537 5.473691 0.271968
v 0.314261 5.481848 0.326821
v 0.299537 5.486152 0.382109
v 0.259313 5.485451 0.423019
v 0.204365 5.479932 0.438589
v 0.149417 5.471075 0.424646
v 0.109192 5.461251 0.384927
v 0.089728 5.524977 0.321941
v 0.104578 5.518746 0.266871
v 0.145150 5.514185 0.226556
v 0.200572 5.512516 0.211800
v 0.255994 5.514185 0.226556
v 0.296565 5.518746 0.266871
v 0.311416 5.524977 0.321941
v 0.296565 5.531207 0.377012
v 0.255994 5.535768 0.417327
v 0.200572 5.537437 0.432083
v 0.145150 5.535768 0.417327
v 0.104578 5.531207 0.377012
v 0.094469 5.596859 0.313809
v 0.109192 5.588702 0.258956
v 0.149417 5.578879 0.219237
v 0.204365 5.570022 0.205294
v 0.259313 5.564503 0.220864
v 0.299537 5.563801 0.261773
v 0.314261 5.568106 0.317062
v 0.299537 5.576262 0.371915
v 0.259313 5.586085 0.411634
v 0.204365 5.594943 0.425577
v 0.149417 5.600461 0.410008
v 0.109192 5.601163 0.369098
v 0.108612 5.667510 0.305816
v 0.122956 5.657461 0.251177
v 0.162146 5.642466 0.212043
v 0.215679 5.626543 0.198900
v 0.269213 5.613959 0.215268
v 0.308402 5.608086 0.256763
v 0.322746 5.610497 0.312266
v 0.308402 5.620546 0.366905
v 0.269213 5.635541 0.406039
v 0.215679 5.651464 0.419183
v 0.162146 5.664048 0.402814
v 0.122956 5.669921 0.361319
v 0.131915 5.735723 0.298099
v 0.145635 5.723846 0.243667
v 0.183118 5.703857 0.205098
v 0.234322 5.681113 0.192726
v 0.285525 5.661708 0.209866
v 0.323008 5.650841 0.251926
v 0.336728 5.651424 0.307636
v 0.323008 5.663302 0.362068
v 0.285525 5.683290 0.400637
v 0.234322 5.706035 0.413009
v 0.183118 5.725440 0.395868
v 0.145635 5.736307 0.353809
v 0.163979 5.800330 0.290790
v 0.176840 5.786722 0.236554
v 0.211976 5.762004 0.198520
v 0.259973 5.732799 0.186879
v 0.307970 5.706933 0.204750
v 0.343106 5.691337 0.247345
v 0.355967 5.690189 0.303250
v 0.343106 5.703797 0.357486
v 0.307970 5.728516 0.395521
v 0.259973 5.757720 0.407161
v 0.211976 5.783587 0.389290
v 0.176840 5.799182 0.346695
v 0.204255 5.860226 0.284013
v 0.216037 5.845013 0.229959
v 0.248225 5.815910 0.192421
v 0.292194 5.780715 0.181458
v 0.336163 5.748860 0.200007
v 0.368351 5.728879 0.243098
v 0.380132 5.726126 0.299185
v 0.368351 5.741340 0.353239
v 0.336163 5.770442 0.390777
v 0.292194 5.805637 0.401740
v 0.248225 5.837492 0.383192
v 0.216037 5.857473 0.340100
v 0.252055 5.914385 0.277886
v 0.262556 5.897721 0.223996
v 0.291244 5.864654 0.186906
v 0.330434 5.824043 0.176556
v 0.369623 5.786772 0.195717
v 0.398311 5.762826 0.239257
v 0.408812 5.758622 0.295508
v 0.398311 5.775287 0.349399
v 0.369623 5.808354 0.386488
v 0.330434 5.848965 0.396839
v 0.291244 5.886236 0.377677
v 0.262556 5.910182 0.334137
v 0.306560 5.961882 0.272513
v 0.315600 5.943945 0.218766
v 0.340299 5.907400 0.182070
v 0.374037 5.862041 0.172257
v 0.407776 5.820019 0.191956
v 0.432475 5.792596 0.235889
v 0.441515 5.787120 0.292284
v 0.432475 5.805057 0.346031
v 0.407776 5.841602 0.382727
v 0.374037 5.886962 0.392540
v 0.340299 5.928983 0.372841
v 0.315600 5.956406 0.328908
v 0.366838 6.001904 0.267985
v 0.374263 5.982894 0.214360
v 0.394549 5.943419 0.177995
v 0.422260 5.894057 0.168635
v 0.449971 5.848034 0.188787
v 0.470257 5.817681 0.233051
v 0.477682 5.811132 0.289568
v 0.470257 5.830142 0.343193
v 0.449971 5.869617 0.379557
v 0.422260 5.918979 0.388918
v 0.394549 5.965002 0.368766
v 0.374263 5.995355 0.324501
v 0.431857 6.033764 0.264380
v 0.437540 6.013901 0.210852
v 0.453066 5.972094 0.174751
v 0.474275 5.919546 0.165751
v 0.495484 5.870337 0.186263
v 0.511010 5.837652 0.230792
v 0.516693 5.830249 0.287405
v 0.511010 5.850112 0.340933
v 0.495484 5.891919 0.377034
v 0.474275 5.944467 0.386034
v 0.453066 5.993677 0.365522
v 0.437540 6.026361 0.320994
v 0.500505 6.056919 0.261761
v 0.504349 6.036436 0.208303
v 0.514849 5.992934 0.172394
v 0.529194 5.938070 0.163655
v 0.543538 5.886545 0.184430
v 0.554039 5.852165 0.229150
v 0.557882 5.844142 0.285833
v 0.554039 5.864626 0.339291
v 0.543538 5.908128 0.375200
v 0.529194 5.962991 0.383938
v 0.514849 6.014516 0.363164
v 0.504349 6.048896 0.318444
v 0.571607 6.070972 0.260171
v 0.573546 6.050112 0.206755
v 0.578841 6.005582 0.170963
v 0.586076 5.949313 0.162384
v 0.593310 5.896382 0.183317
v 0.598605 5.860974 0.228153
v 0.600544 5.852574 0.284879
v 0.598605 5.873435 0.338295
v 0.593310 5.917965 0.374087
v 0.586076 5.974234 0.382666
v 0.578841 6.027164 0.361733
v 0.573546 6.062573 0.316897
v 0.643948 6.075684 0.259638
v 0.643948 6.054698 0.206237
v 0.643948 6.009822 0.170483
v 0.643948 5.953082 0.161957
v 0.643948 5.899681 0.182944
v 0.643948 5.863927 0.227819
v 0.643948 5.855401 0.284559
v 0.643948 5.876388 0.337961
v 0.643948 5.921263 0.373714
v 0.643948 5.978004 0.382240
v 0.643948 6.031404 0.361254
v 0.643948 6.067158 0.316378
v 0.716288 6.070973 0.260171
v 0.714350 6.050113 0.206755
v 0.709054 6.005582 0.170963
v 0.701820 5.949313 0.162384
v 0.694586 5.896383 0.183317
v 0.689291 5.860974 0.228153
v 0.687352 5.852574 0.284879
v 0.689291 5.873435 0.338295
v 0.694586 5.917965 0.374087
v 0.701820 5.974234 0.382666
v 0.709054 6.027164 0.361733
v 0.714350 6.062573 0.316897
v 0.787391 6.056919 0.261761
v 0.783547 6.036436 0.208303
v 0.773046 5.992934 0.172394
v 0.758702 5.938070 0.163655
v 0.744358 5.886545 0.184430
v 0.733857 5.852165 0.229150
v 0.730014 5.844142 0.285833
v 0.733857 5.864626 0.339291
v 0.744358 5.908128 0.375200
v 0.758702 5.962991 0.383938
v 0.773046 6.014516 0.363164
v 0.783547 6.048896 0.318444
v 0.856039 6.033764 0.264380
v 0.850356 6.013901 0.210852
v 0.834830 5.972094 0.174751
v 0.813621 5.919546 0.165751
v 0.792412 5.870337 0.186263
v 0.776886 5.837652 0.230792
v 0.771203 5.830249 0.287405
v 0.776886 5.850112 0.340933
v 0.792412 5.891919 0.377034
v 0.813621 5.944467 0.386034
v 0.834830 5.993677 0.365522
v 0.850356 6.026361 0.320994
v 0.921058 6.001903 0.267985
v 0.913633 5.982894 0.214360
v 0.893347 5.943419 0.177995
v 0.865636 5.894057 0.168635
v 0.837925 5.848034 0.188787
v 0.817639 5.817681 0.233051
v 0.810214 5.811132 0.289568
v 0.817639 5.830142 0.343193
v 0.837925 5.869617 0.379557
v 0.865636 5.918979 0.388918
v 0.893347 5.965002 0.368766
v 0.913633 5.995355 0.324501
v 0.981336 5.961883 0.272513
v 0.972296 5.943945 0.218766
v 0.947597 5.907401 0.182070
v 0.913858 5.862041 0.172257
v 0.880120 5.820019 0.191956
v 0.855421 5.792597 0.235889
v 0.846381 5.787120 0.292284
v 0.855421 5.805058 0.346030
v 0.880120 5.841602 0.382727
v 0.913858 5.886962 0.392540
v 0.947597 5.928983 0.372841
v 0.972296 5.956406 0.328908
v 1.035841 5.914386 0.277886
v 1.025340 5.897721 0.223996
v 0.996652 5.864654 0.186906
v 0.957462 5.824043 0.176556
v 0.918273 5.786772 0.195717
v 0.889584 5.762826 0.239257
v 0.879084 5.758622 0.295508
v 0.889584 5.775287 0.349399
v 0.918273 5.808354 0.386488
v 0.957462 5.848965 0.396839
v 0.996652 5.886236 0.377677
v 1.025340 5.910182 0.334137
v 1.083641 5.860226 0.284013
v 1.071859 5.845013 0.229959
v 1.039671 5.815910 0.192421
v 0.995702 5.780715 0.181458
v 0.951733 5.748860 0.200007
v 0.919545 5.728879 0.243098
v 0.907764 5.726126 0.299185
v 0.919545 5.741340 0.353239
v 0.951733 5.770442 0.390777
v 0.995702 5.805637 0.401740
v 1.039671 5.837492 0.383192
v 1.071859 5.857473 0.340100
v 1.123917 5.800331 0.290790
v 1.111056 5.786722 0.236554
v 1.075920 5.762004 0.198519
v 1.027923 5.732799 0.186879
v 0.979926 5.706933 0.204750
v 0.944790 5.691337 0.247345
v 0.931929 5.690189 0.303250
v 0.944790 5.703797 0.357486
v 0.979926 5.728516 0.395521
v 1.027923 5.757720 0.407161
v 1.075920 5.783587 0.389290
v 1.111056 5.799183 0.346695
v 1.155981 5.735723 0.298099
v 1.142261 5.723846 0.243667
v 1.104778 5.703857 0.205098
v 1.053574 5.681113 0.192726
v 1.002371 5.661708 0.209866
v 0.964888 5.650841 0.251926
v 0.951168 5.651425 0.307636
v 0.964888 5.663302 0.362068
v 1.002371 5.683291 0.400637
v 1.053574 5.706035 0.413009
v 1.104778 5.725440 0.395868
v 1.142261 5.736307 0.353808
v 1.179284 5.667510 0.305816
v 1.164940 5.657461 0.251177
v 1.125750 5.642466 0.212043
v 1.072217 5.626543 0.198900
v 1.018683 5.613959 0.215268
v 0.979494 5.608086 0.256763
v 0.965150 5.610497 0.312266
v 0.979494 5.620546 0.366905
v 1.018683 5.635541 0.406039
v 1.072217 5.651464 0.419183
v 1.125750 5.664048 0.402814
v 1.164940 5.669921 0.361319
v 1.193427 5.596859 0.313809
v 1.178704 5.588702 0.258956
v 1.138479 5.578879 0.219237
v 1.083531 5.570022 0.205294
v 1.028583 5.564503 0.220864
v 0.988359 5.563801 0.261773
v 0.973635 5.568106 0.317062
v 0.988359 5.576262 0.371915
v 1.028583 5.586085 0.411634
v 1.083531 5.594943 0.425577
v 1.138479 5.600461 0.410008
v 1.178704 5.601163 0.369098
vn 0.964000 -0.091800 -0.249600
vn 0.706300 -0.125400 -0.696700
vn 0.258800 -0.125400 -0.957800
vn -0.258800 -0.091700 -0.961600
vn -0.706300 -0.033400 -0.707100
vn -0.964000 0.033700 -0.263800
vn -0.964000 0.091800 0.249600
vn -0.706400 0.125400 0.696700
vn -0.258800 0.125400 0.957800
vn 0.258800 0.091700 0.961600
vn 0.706300 0.033400 0.707100
vn 0.964000 -0.033700 0.263800
vn 0.947500 -0.216300 -0.235500
vn 0.694300 -0.216600 -0.686300
vn 0.254400 -0.158800 -0.954000
vn -0.254400 -0.058300 -0.965400
vn -0.694300 0.057800 -0.717400
vn -0.947500 0.158200 -0.277900
vn -0.947500 0.216300 0.235500
vn -0.694300 0.216600 0.686300
vn -0.254400 0.158800 0.954000
vn 0.254400 0.058300 0.965400
vn 0.694300 -0.057800 0.717400
vn 0.947500 -0.158200 0.277800
vn 0.914800 -0.337600 -0.221800
vn 0.670300 -0.305500 -0.676300
vn 0.245600 -0.191400 -0.950300
vn -0.245600 -0.025700 -0.969000
vn -0.670300 0.146700 -0.727400
vn -0.914800 0.279500 -0.291600
vn -0.914800 0.337600 0.221800
vn -0.670300 0.305500 0.676300
vn -0.245600 0.191400 0.950300
vn 0.245600 0.025700 0.969000
vn 0.670300 -0.146700 0.727500
vn 0.914800 -0.279500 0.291600
vn 0.866400 -0.453600 -0.208600
vn 0.634900 -0.390500 -0.666700
vn 0.232600 -0.222500 -0.946800
vn -0.232600 0.005400 -0.972600
vn -0.634900 0.231700 -0.737100
vn -0.866400 0.395500 -0.304700
vn -0.866400 0.453600 0.208600
vn -0.634900 0.390500 0.666700
vn -0.232600 0.222500 0.946800
vn 0.232600 -0.005400 0.972600
vn 0.634900 -0.231700 0.737100
vn 0.866400 -0.395500 0.304700
vn 0.803300 -0.562400 -0.196300
vn 0.588600 -0.470200 -0.657700
vn 0.215600 -0.251700 -0.943500
vn -0.215600 0.034600 -0.975900
vn -0.588600 0.311400 -0.746100
vn -0.803300 0.504300 -0.317000
vn -0.803300 0.562400 0.196300
vn -0.588600 0.470200 0.657700
vn -0.215600 0.251700 0.943500
vn 0.215600 -0.034600 0.975900
vn 0.588600 -0.311400 0.746100
vn 0.803300 -0.504300 0.317000
vn 0.726300 -0.662000 -0.185100
vn 0.532200 -0.543200 -0.649400
vn 0.195000 -0.278500 -0.940400
vn -0.195000 0.061300 -0.978900
vn -0.532200 0.384400 -0.754300
vn -0.726300 0.603900 -0.328300
vn -0.726300 0.662000 0.185000
vn -0.532200 0.543200 0.649400
vn -0.195000 0.278500 0.940400
vn 0.195000 -0.061300 0.978900
vn 0.532200 -0.384400 0.754300
vn 0.726300 -0.603900 0.328300
vn 0.637000 -0.750800 -0.175000
vn 0.466700 -0.608200 -0.642000
vn 0.171000 -0.302300 -0.937700
vn -0.171000 0.085200 -0.981600
vn -0.466700 0.449400 -0.761700
vn -0.637000 0.692700 -0.338300
vn -0.637000 0.750800 0.175000
vn -0.466700 0.608200 0.642000
vn -0.171000 0.302300 0.937700
vn 0.171000 -0.085200 0.981600
vn 0.466700 -0.449400 0.761700
vn 0.637000 -0.692700 0.338300
vn 0.536700 -0.827200 -0.166400
vn 0.393300 -0.664200 -0.635700
vn 0.144100 -0.322800 -0.935400
vn -0.144100 0.105700 -0.983900
vn -0.393300 0.505400 -0.768000
vn -0.536700 0.769100 -0.347000
vn -0.536700 0.827200 0.166400
vn -0.393300 0.664200 0.635700
vn -0.144100 0.322800 0.935400
vn 0.144100 -0.105700 0.983900
vn 0.393300 -0.505400 0.768000
vn 0.536700 -0.769100 0.347000
vn 0.427300 -0.890000 -0.159300
vn 0.313100 -0.710200 -0.630500
vn 0.114700 -0.339700 -0.933500
vn -0.114700 0.122500 -0.985800
vn -0.313100 0.551400 -0.773200
vn -0.427300 0.831900 -0.354100
vn -0.427300 0.890000 0.159300
vn -0.313100 0.710200 0.630500
vn -0.114700 0.339700 0.933500
vn 0.114700 -0.122500 0.985800
vn 0.313100 -0.551400 0.773200
vn 0.427300 -0.831900 0.354100
vn 0.310500 -0.938000 -0.153800
vn 0.227500 -0.745500 -0.626500
vn 0.083400 -0.352600 -0.932100
vn -0.083400 0.135400 -0.987300
vn -0.227500 0.586600 -0.777200
vn -0.310500 0.880000 -0.359500
vn -0.310500 0.938000 0.153800
vn -0.227500 0.745500 0.626500
vn -0.083400 0.352600 0.932100
vn 0.083400 -0.135400 0.987300
vn 0.227500 -0.586600 0.777200
vn 0.310500 -0.880000 0.359500
vn 0.188500 -0.970500 -0.150100
vn 0.138100 -0.769300 -0.623800
vn 0.050600 -0.361300 -0.931100
vn -0.050600 0.144200 -0.988300
vn -0.138100 0.610400 -0.779900
vn -0.188500 0.912500 -0.363200
vn -0.188500 0.970500 0.150100
vn -0.138100 0.769300 0.623800
vn -0.050600 0.361300 0.931100
vn 0.050600 -0.144200 0.988300
vn 0.138100 -0.610500 0.779900
vn 0.188500 -0.912500 0.363200
vn 0.063200 -0.986900 -0.148300
vn 0.046300 -0.781300 -0.622500
vn 0.017000 -0.365700 -0.930600
vn -0.017000 0.148600 -0.988800
vn -0.046300 0.622500 -0.781300
vn -0.063200 0.928800 -0.365000
vn -0.063200 0.986900 0.148300
vn -0.046300 0.781300 0.622500
vn -0.017000 0.365700 0.930600
vn 0.017000 -0.148600 0.988800
vn 0.046300 -0.622500 0.781300
vn 0.063200 -0.928800 0.365000
vn -0.063200 -0.986900 -0.148300
vn -0.046300 -0.781300 -0.622500
vn -0.017000 -0.365700 -0.930600
vn 0.017000 0.148600 -0.988800
vn 0.046300 0.622500 -0.781300
vn 0.063200 0.928800 -0.365000
vn 0.063200 0.986900 0.148300
vn 0.046300 0.781300 0.622500
vn 0.017000 0.365700 0.930600
vn -0.017000 -0.148600 0.988800
vn -0.046300 -0.622500 0.781300
vn -0.063200 -0.928900 0.365000
vn -0.188500 -0.970500 -0.150100
vn -0.138100 -0.769300 -0.623800
vn -0.050600 -0.361300 -0.931100
vn 0.050600 0.144200 -0.988300
vn 0.138100 0.610500 -0.779900
vn 0.188500 0.912500 -0.363200
vn 0.188500 0.970500 0.150200
vn 0.138100 0.769300 0.623800
vn 0.050600 0.361300 0.931100
vn -0.050600 -0.144200 0.988300
vn -0.138100 -0.610500 0.779900
vn -0.188500 -0.912500 0.363200
vn -0.310500 -0.938000 -0.153800
vn -0.227500 -0.745500 -0.626500
vn -0.083400 -0.352600 -0.932100
vn 0.083400 0.135400 -0.987300
vn 0.227500 0.586600 -0.777200
vn 0.310500 0.880000 -0.359500
vn 0.310500 0.938000 0.153800
vn 0.227500 0.745500 0.626500
vn 0.083400 0.352600 0.932100
vn -0.083400 -0.135400 0.987300
vn -0.227500 -0.586600 0.777200
vn -0.310500 -0.880000 0.359500
vn -0.427300 -0.890000 -0.159300
vn -0.313100 -0.710200 -0.630500
vn -0.114700 -0.339700 -0.933500
vn 0.114700 0.122500 -0.985800
vn 0.313100 0.551400 -0.773200
vn 0.427300 0.831900 -0.354100
vn 0.427300 0.890000 0.159300
vn 0.313100 0.710200 0.630500
vn 0.114700 0.339700 0.933500
vn -0.114700 -0.122500 0.985800
vn -0.313100 -0.551400 0.773200
vn -0.427300 -0.831900 0.354100
vn -0.536700 -0.827200 -0.166400
vn -0.393300 -0.664200 -0.635700
vn -0.144100 -0.322800 -0.935400
vn 0.144100 0.105700 -0.983900
vn 0.393300 0.505400 -0.768000
vn 0.536700 0.769100 -0.347000
vn 0.536700 0.827200 0.166400
vn 0.393300 0.664200 0.635700
vn 0.144100 0.322800 0.935400
vn -0.144100 -0.105700 0.983900
vn -0.393300 -0.505400 0.768000
vn -0.536700 -0.769100 0.347000
vn -0.637000 -0.750800 -0.175000
vn -0.466700 -0.608200 -0.642000
vn -0.171000 -0.302300 -0.937700
vn 0.171000 0.085200 -0.981600
vn 0.466700 0.449400 -0.761700
vn 0.637000 0.692700 -0.338300
vn 0.637000 0.750800 0.175000
vn 0.466700 0.608200 0.642000
vn 0.171000 0.302300 0.937700
vn -0.171000 -0.085200 0.981600
vn -0.466700 -0.449400 0.761700
vn -0.637000 -0.692700 0.338300
vn -0.726300 -0.662000 -0.185100
vn -0.532200 -0.543200 -0.649400
vn -0.195000 -0.278500 -0.940400
vn 0.195000 0.061300 -0.978900
vn 0.532200 0.384400 -0.754300
vn 0.726300 0.603900 -0.328300
vn 0.726300 0.662000 0.185100
vn 0.532200 0.543200 0.649400
vn 0.195000 0.278500 0.940400
vn -0.195000 -0.061300 0.978900
vn -0.532200 -0.384400 0.754300
vn -0.726300 -0.603900 0.328300
vn -0.803300 -0.562400 -0.196300
vn -0.588600 -0.470200 -0.657700
vn -0.215600 -0.251700 -0.943500
vn 0.215600 0.034600 -0.975900
vn 0.588600 0.311400 -0.746100
vn 0.803300 0.504300 -0.317000
vn 0.803300 0.562400 0.196300
vn 0.588600 0.470200 0.657700
vn 0.215600 0.251700 0.943500
vn -0.215600 -0.034600 0.975900
vn -0.588600 -0.311400 0.746100
vn -0.803300 -0.504300 0.317000
vn -0.866400 -0.453600 -0.208600
vn -0.634900 -0.390500 -0.666700
vn -0.232600 -0.222500 -0.946800
vn 0.232600 0.005400 -0.972600
vn 0.634900 0.231700 -0.737100
vn 0.866400 0.395500 -0.304700
vn 0.866400 0.453600 0.208600
vn 0.634900 0.390500 0.666700
vn 0.232600 0.222500 0.946800
vn -0.232600 -0.005400 0.972600
vn -0.634900 -0.231700 0.737100
vn -0.866400 -0.395500 0.304700
vn -0.914800 -0.337600 -0.221800
vn -0.670300 -0.305500 -0.676300
vn -0.245600 -0.191400 -0.950300
vn 0.245600 -0.025700 -0.969000
vn 0.670300 0.146700 -0.727400
vn 0.914800 0.279500 -0.291600
vn 0.914800 0.337600 0.221800
vn 0.670300 0.305500 0.676300
vn 0.245600 0.191400 0.950300
vn -0.245600 0.025700 0.969000
vn -0.670300 -0.146700 0.727400
vn -0.914800 -0.279500 0.291600
vn -0.947500 -0.216300 -0.235500
vn -0.694300 -0.216600 -0.686300
vn -0.254400 -0.158800 -0.954000
vn 0.254400 -0.058300 -0.965400
vn 0.694300 0.057800 -0.717400
vn 0.947500 0.158200 -0.277900
vn 0.947500 0.216300 0.235500
vn 0.694300 0.216600 0.686300
vn 0.254400 0.158800 0.954000
vn -0.254400 0.058300 0.965400
vn -0.694300 -0.057800 0.717400
vn -0.947500 -0.158200 0.277800
vn -0.964000 -0.091800 -0.249600
vn -0.706300 -0.125400 -0.696700
vn -0.258800 -0.125400 -0.957800
vn 0.258800 -0.091700 -0.961600
vn 0.706300 -0.033400 -0.707100
vn 0.964000 0.033700 -0.263800
vn 0.964000 0.091800 0.249600
vn 0.706400 0.125400 0.696700
vn 0.258800 0.125400 0.957800
vn -0.258800 0.091700 0.961600
vn -0.706300 0.033400 0.707100
vn -0.964000 -0.033700 0.263800
vn 0.706400 -0.125400 -0.696700
vn -0.706300 0.125400 0.696700
vn -0.947500 0.158200 -0.277800
vn 0.947500 -0.158200 0.277900
vn 0.670300 -0.146700 0.727400
vn -0.726300 0.662000 0.185100
vn -0.138100 0.610500 -0.779900
vn 0.188500 -0.970500 -0.150200
vn -0.063200 0.928900 -0.365000
vn -0.063200 -0.928800 0.365000
vn 0.188500 0.970500 0.150100
vn 0.670300 0.146700 -0.727500
vn -0.947500 -0.158200 0.277900
vn -0.706400 -0.125400 -0.696700
usemtl Material.001
s off
f 577//303 589//303 590//303 578//303
f 578//304 590//304 591//304 579//304
f 579//305 591//305 592//305 580//305
f 580//306 592//306 593//306 581//306
f 581//307 593//307 594//307 582//307
f 582//308 594//308 595//308 583//308
f 583//309 595//309 596//309 584//309
f 584//310 596//310 597//310 585//310
f 585//311 597//311 598//311 586//311
f 586//312 598//312 599//312 587//312
f 587//313 599//313 600//313 588//313
f 577//314 588//314 600//314 589//314
f 589//315 601//315 602//315 590//315
f 590//316 602//316 603//316 591//316
f 591//317 603//317 604//317 592//317
f 592//318 604//318 605//318 593//318
f 593//319 605//319 606//319 594//319
f 594//320 606//320 607//320 595//320
f 595//321 607//321 608//321 596//321
f 596//322 608//322 609//322 597//322
f 597//323 609//323 610//323 598//323
f 598//324 610//324 611//324 599//324
f 599//325 611//325 612//325 600//325
f 600//326 612//326 601//326 589//326
f 601//327 613//327 614//327 602//327
f 602//328 614//328 615//328 603//328
f 603//329 615//329 616//329 604//329
f 604//330 616//330 617//330 605//330
f 605//331 617//331 618//331 606//331
f 606//332 618//332 619//332 607//332
f 607//333 619//333 620//333 608//333
f 608//334 620//334 621//334 609//334
f 609//335 621//335 622//335 610//335
f 610//336 622//336 623//336 611//336
f 611//337 623//337 624//337 612//337
f 612//338 624//338 613//338 601//338
f 613//339 625//339 626//339 614//339
f 614//340 626//340 627//340 615//340
f 615//341 627//341 628//341 616//341
f 616//342 628//342 629//342 617//342
f 617//343 629//343 630//343 618//343
f 618//344 630//344 631//344 619//344
f 619//345 631//345 632//345 620//345
f 620//346 632//346 633//346 621//346
f 621//347 633//347 634//347 622//347
f 622//348 634//348 635//348 623//348
f 623//349 635//349 636//349 624//349
f 624//350 636//350 625//350 613//350
f 625//351 637//351 638//351 626//351
f 626//352 638//352 639//352 627//352
f 627//353 639//353 640//353 628//353
f 628//354 640//354 641//354 629//354
f 629//355 641//355 642//355 630//355
f 630//356 642//356 643//356 631//356
f 631//357 643//357 644//357 632//357
f 632//358 644//358 645//358 633//358
f 633//359 645//359 646//359 634//359
f 634//360 646//360 647//360 635//360
f 635//361 647//361 648//361 636//361
f 636//362 648//362 637//362 625//362
f 637//363 649//363 650//363 638//363
f 638//364 650//364 651//364 639//364
f 639//365 651//365 652//365 640//365
f 640//366 652//366 653//366 641//366
f 641//367 653//367 654//367 642//367
f 642//368 654//368 655//368 643//368
f 643//369 655//369 656//369 644//369
f 644//370 656//370 657//370 645//370
f 645//371 657//371 658//371 646//371
f 646//372 658//372 659//372 647//372
f 647//373 659//373 660//373 648//373
f 648//374 660//374 649//374 637//374
f 649//375 661//375 662//375 650//375
f 650//376 662//376 663//376 651//376
f 651//377 663//377 664//377 652//377
f 652//378 664//378 665//378 653//378
f 653//379 665//379 666//379 654//379
f 654//380 666//380 667//380 655//380
f 655//381 667//381 668//381 656//381
f 656//382 668//382 669//382 657//382
f 657//383 669//383 670//383 658//383
f 658//384 670//384 671//384 659//384
f 659//385 671//385 672//385 660//385
f 660//386 672//386 661//386 649//386
f 661//387 673//387 674//387 662//387
f 662//388 674//388 675//388 663//388
f 663//389 675//389 676//389 664//389
f 664//390 676//390 677//390 665//390
f 665//391 677//391 678//391 666//391
f 666//392 678//392 679//392 667//392
f 667//393 679//393 680//393 668//393
f 668//394 680//394 681//394 669//394
f 669//395 681//395 682//395 670//395
f 670//396 682//396 683//396 671//396
f 671//397 683//397 684//397 672//397
f 672//398 684//398 673//398 661//398
f 673//399 685//399 686//399 674//399
f 674//400 686//400 687//400 675//400
f 675//401 687//401 688//401 676//401
f 676//402 688//402 689//402 677//402
f 677//403 689//403 690//403 678//403
f 678//404 690//404 691//404 679//404
f 679//405 691//405 692//405 680//405
f 680//406 692//406 693//406 681//406
f 681//407 693//407 694//407 682//407
f 682//408 694//408 695//408 683//408
f 683//409 695//409 696//409 684//409
f 684//410 696//410 685//410 673//410
f 685//411 697//411 698//411 686//411
f 686//412 698//412 699//412 687//412
f 687//413 699//413 700//413 688//413
f 688//414 700//414 701//414 689//414
f 689//415 701//415 702//415 690//415
f 690//416 702//416 703//416 691//416
f 691//417 703//417 704//417 692//417
f 692//418 704//418 705//418 693//418
f 693//419 705//419 706//419 694//419
f 694//420 706//420 707//420 695//420
f 695//421 707//421 708//421 696//421
f 696//422 708//422 697//422 685//422
f 697//423 709//423 710//423 698//423
f 698//424 710//424 711//424 699//424
f 699//425 711//425 712//425 700//425
f 700//426 712//426 713//426 701//426
f 701//427 713//427 714//427 702//427
f 702//428 714//428 715//428 703//428
f 703//429 715//429 716//429 704//429
f 704//430 716//430 717//430 705//430
f 705//431 717//431 718//431 706//431
f 706//432 718//432 719//432 707//432
f 707//433 719//433 720//433 708//433
f 708//434 720//434 709//434 697//434
f 709//435 721//435 722//435 710//435
f 710//436 722//436 723//436 711//436
f 711//437 723//437 724//437 712//437
f 712//438 724//438 725//438 713//438
f 713//439 725//439 726//439 714//439
f 714//440 726//440 727//440 715//440
f 715//441 727//441 728//441 716//441
f 716//442 728//442 729//442 717//442
f 717//443 729//443 730//443 718//443
f 718//444 730//444 731//444 719//444
f 719//445 731//445 732//445 720//445
f 720//446 732//446 721//446 709//446
f 721//447 733//447 734//447 722//447
f 722//448 734//448 735//448 723//448
f 723//449 735//449 736//449 724//449
f 724//450 736//450 737//450 725//450
f 725//451 737//451 738//451 726//451
f 726//452 738//452 739//452 727//452
f 727//453 739//453 740//453 728//453
f 728//454 740//454 741//454 729//454
f 729//455 741//455 742//455 730//455
f 730//456 742//456 743//456 731//456
f 731//457 743//457 744//457 732//457
f 732//458 744//458 733//458 721//458
f 733//459 745//459 746//459 734//459
f 734//460 746//460 747//460 735//460
f 735//461 747//461 748//461 736//461
f 736//462 748//462 749//462 737//462
f 737//463 749//463 750//463 738//463
f 738//464 750//464 751//464 739//464
f 739//465 751//465 752//465 740//465
f 740//466 752//466 753//466 741//466
f 741//467 753//467 754//467 742//467
f 742//468 754//468 755//468 743//468
f 743//469 755//469 756//469 744//469
f 744//470 756//470 745//470 733//470
f 745//471 757//471 758//471 746//471
f 746//472 758//472 759//472 747//472
f 747//473 759//473 760//473 748//473
f 748//474 760//474 761//474 749//474
f 749//475 761//475 762//475 750//475
f 750//476 762//476 763//476 751//476
f 751//477 763//477 764//477 752//477
f 752//478 764//478 765//478 753//478
f 753//479 765//479 766//479 754//479
f 754//480 766//480 767//480 755//480
f 755//481 767//481 768//481 756//481
f 756//482 768//482 757//482 745//482
f 757//483 769//483 770//483 758//483
f 758//484 770//484 771//484 759//484
f 759//485 771//485 772//485 760//485
f 760//486 772//486 773//486 761//486
f 761//487 773//487 774//487 762//487
f 762//488 774//488 775//488 763//488
f 763//489 775//489 776//489 764//489
f 764//490 776//490 777//490 765//490
f 765//491 777//491 778//491 766//491
f 766//492 778//492 779//492 767//492
f 767//493 779//493 780//493 768//493
f 768//494 780//494 769//494 757//494
f 769//495 781//495 782//495 770//495
f 770//496 782//496 783//496 771//496
f 771//497 783//497 784//497 772//497
f 772//498 784//498 785//498 773//498
f 773//499 785//499 786//499 774//499
f 774//500 786//500 787//500 775//500
f 775//501 787//501 788//501 776//501
f 776//502 788//502 789//502 777//502
f 777//503 789//503 790//503 778//503
f 778//504 790//504 791//504 779//504
f 779//505 791//505 792//505 780//505
f 780//506 792//506 781//506 769//506
f 781//507 793//507 794//507 782//507
f 782//508 794//508 795//508 783//508
f 783//509 795//509 796//509 784//509
f 784//510 796//510 797//510 785//510
f 785//511 797//511 798//511 786//511
f 786//512 798//512 799//512 787//512
f 787//513 799//513 800//513 788//513
f 788//514 800//514 801//514 789//514
f 789//515 801//515 802//515 790//515
f 790//516 802//516 803//516 791//516
f 791//517 803//517 804//517 792//517
f 792//518 804//518 793//518 781//518
f 793//519 805//519 806//519 794//519
f 794//520 806//520 807//520 795//520
f 795//521 807//521 808//521 796//521
f 796//522 808//522 809//522 797//522
f 797//523 809//523 810//523 798//523
f 798//524 810//524 811//524 799//524
f 799//525 811//525 812//525 800//525
f 800//526 812//526 813//526 801//526
f 801//527 813//527 814//527 802//527
f 802//528 814//528 815//528 803//528
f 803//529 815//529 816//529 804//529
f 804//530 816//530 805//530 793//530
f 805//531 817//531 818//531 806//531
f 806//532 818//532 819//532 807//532
f 807//533 819//533 820//533 808//533
f 808//534 820//534 821//534 809//534
f 809//535 821//535 822//535 810//535
f 810//536 822//536 823//536 811//536
f 811//537 823//537 824//537 812//537
f 812//538 824//538 825//538 813//538
f 813//539 825//539 826//539 814//539
f 814//540 826//540 827//540 815//540
f 815//541 827//541 828//541 816//541
f 816//542 828//542 817//542 805//542
f 817//543 829//543 830//543 818//543
f 818//544 830//544 831//544 819//544
f 819//545 831//545 832//545 820//545
f 820//546 832//546 833//546 821//546
f 821//547 833//547 834//547 822//547
f 822//548 834//548 835//548 823//548
f 823//549 835//549 836//549 824//549
f 824//550 836//550 837//550 825//550
f 825//551 837//551 838//551 826//551
f 826//552 838//552 839//552 827//552
f 827//553 839//553 840//553 828//553
f 828//554 840//554 829//554 817//554
f 829//555 841//555 842//555 830//555
f 830//556 842//556 843//556 831//556
f 831//557 843//557 844//557 832//557
f 832//558 844//558 845//558 833//558
f 833//559 845//559 846//559 834//559
f 834//560 846//560 847//560 835//560
f 835//561 847//561 848//561 836//561
f 836//562 848//562 849//562 837//562
f 837//563 849//563 850//563 838//563
f 838//564 850//564 851//564 839//564
f 839//565 851//565 852//565 840//565
f 840//566 852//566 841//566 829//566
f 841//567 853//567 854//567 842//567
f 842//568 854//568 855//568 843//568
f 843//569 855//569 856//569 844//569
f 844//570 856//570 857//570 845//570
f 845//571 857//571 858//571 846//571
f 846//572 858//572 859//572 847//572
f 847//573 859//573 860//573 848//573
f 848//574 860//574 861//574 849//574
f 849//575 861//575 862//575 850//575
f 850//576 862//576 863//576 851//576
f 851//577 863//577 864//577 852//577
f 852//578 864//578 853//578 841//578
f 853//579 865//579 866//579 854//579
f 854//580 866//580 867//580 855//580
f 855//581 867//581 868//581 856//581
f 856//582 868//582 869//582 857//582
f 857//583 869//583 870//583 858//583
f 858//584 870//584 871//584 859//584
f 859//585 871//585 872//585 860//585
f 860//586 872//586 873//586 861//586
f 861//587 873//587 874//587 862//587
f 862//588 874//588 875//588 863//588
f 863//589 875//589 876//589 864//589
f 864//590 876//590 865//590 853//590
f 865//308 877//308 878//308 866//308
f 866//307 878//307 879//307 867//307
f 867//306 879//306 880//306 868//306
f 868//305 880//305 881//305 869//305
f 869//591 881//591 882//591 870//591
f 870//303 882//303 883//303 871//303
f 871//314 883//314 884//314 872//314
f 872//313 884//313 885//313 873//313
f 873//312 885//312 886//312 874//312
f 874//311 886//311 887//311 875//311
f 875//592 887//592 888//592 876//592
f 876//309 888//309 877//309 865//309
f 877//593 889//593 890//593 878//593
f 878//319 890//319 891//319 879//319
f 879//318 891//318 892//318 880//318
f 880//317 892//317 893//317 881//317
f 881//316 893//316 894//316 882//316
f 882//315 894//315 895//315 883//315
f 883//594 895//594 896//594 884//594
f 884//325 896//325 897//325 885//325
f 885//324 897//324 898//324 886//324
f 886//323 898//323 899//323 887//323
f 887//322 899//322 900//322 888//322
f 888//321 900//321 889//321 877//321
f 889//332 901//332 902//332 890//332
f 890//331 902//331 903//331 891//331
f 891//330 903//330 904//330 892//330
f 892//329 904//329 905//329 893//329
f 893//328 905//328 906//328 894//328
f 894//327 906//327 907//327 895//327
f 895//338 907//338 908//338 896//338
f 896//595 908//595 909//595 897//595
f 897//336 909//336 910//336 898//336
f 898//335 910//335 911//335 899//335
f 899//334 911//334 912//334 900//334
f 900//333 912//333 901//333 889//333
f 901//344 913//344 914//344 902//344
f 902//343 914//343 915//343 903//343
f 903//342 915//342 916//342 904//342
f 904//341 916//341 917//341 905//341
f 905//340 917//340 918//340 906//340
f 906//339 918//339 919//339 907//339
f 907//350 919//350 920//350 908//350
f 908//349 920//349 921//349 909//349
f 909//348 921//348 922//348 910//348
f 910//347 922//347 923//347 911//347
f 911//346 923//346 924//346 912//346
f 912//345 924//345 913//345 901//345
f 913//356 925//356 926//356 914//356
f 914//355 926//355 927//355 915//355
f 915//354 927//354 928//354 916//354
f 916//353 928//353 929//353 917//353
f 917//352 929//352 930//352 918//352
f 918//351 930//351 931//351 919//351
f 919//362 931//362 932//362 920//362
f 920//361 932//361 933//361 921//361
f 921//360 933//360 934//360 922//360
f 922//359 934//359 935//359 923//359
f 923//358 935//358 936//358 924//358
f 924//357 936//357 925//357 913//357
f 925//368 937//368 938//368 926//368
f 926//367 938//367 939//367 927//367
f 927//366 939//366 940//366 928//366
f 928//365 940//365 941//365 929//365
f 929//364 941//364 942//364 930//364
f 930//363 942//363 943//363 931//363
f 931//374 943//374 944//374 932//374
f 932//373 944//373 945//373 933//373
f 933//372 945//372 946//372 934//372
f 934//371 946//371 947//371 935//371
f 935//370 947//370 948//370 936//370
f 936//596 948//596 937//596 925//596
f 937//380 949//380 950//380 938//380
f 938//379 950//379 951//379 939//379
f 939//378 951//378 952//378 940//378
f 940//377 952//377 953//377 941//377
f 941//376 953//376 954//376 942//376
f 942//375 954//375 955//375 943//375
f 943//386 955//386 956//386 944//386
f 944//385 956//385 957//385 945//385
f 945//384 957//384 958//384 946//384
f 946//383 958//383 959//383 947//383
f 947//382 959//382 960//382 948//382
f 948//381 960//381 949//381 937//381
f 949//392 961//392 962//392 950//392
f 950//391 962//391 963//391 951//391
f 951//390 963//390 964//390 952//390
f 952//389 964//389 965//389 953//389
f 953//388 965//388 966//388 954//388
f 954//387 966//387 967//387 955//387
f 955//398 967//398 968//398 956//398
f 956//397 968//397 969//397 957//397
f 957//396 969//396 970//396 958//396
f 958//395 970//395 971//395 959//395
f 959//394 971//394 972//394 960//394
f 960//393 972//393 961//393 949//393
f 961//404 973//404 974//404 962//404
f 962//403 974//403 975//403 963//403
f 963//402 975//402 976//402 964//402
f 964//401 976//401 977//401 965//401
f 965//400 977//400 978//400 966//400
f 966//399 978//399 979//399 967//399
f 967//410 979//410 980//410 968//410
f 968//409 980//409 981//409 969//409
f 969//408 981//408 982//408 970//408
f 970//407 982//407 983//407 971//407
f 971//406 983//406 984//406 972//406
f 972//405 984//405 973//405 961//405
f 973//416 985//416 986//416 974//416
f 974//415 986//415 987//415 975//415
f 975//414 987//414 988//414 976//414
f 976//413 988//413 989//413 977//413
f 977//412 989//412 990//412 978//412
f 978//411 990//411 991//411 979//411
f 979//422 991//422 992//422 980//422
f 980//421 992//421 993//421 981//421
f 981//420 993//420 994//420 982//420
f 982//419 994//419 995//419 983//419
f 983//418 995//418 996//418 984//418
f 984//417 996//417 985//417 973//417
f 985//428 997//428 998//428 986//428
f 986//597 998//597 999//597 987//597
f 987//426 999//426 1000//426 988//426
f 988//425 1000//425 1001//425 989//425
f 989//424 1001//424 1002//424 990//424
f 990//598 1002//598 1003//598 991//598
f 991//434 1003//434 1004//434 992//434
f 992//433 1004//433 1005//433 993//433
f 993//432 1005//432 1006//432 994//432
f 994//431 1006//431 1007//431 995//431
f 995//430 1007//430 1008//430 996//430
f 996//429 1008//429 997//429 985//429
f 997//599 1009//599 1010//599 998//599
f 998//439 1010//439 1011//439 999//439
f 999//438 1011//438 1012//438 1000//438
f 1000//437 1012//437 1013//437 1001//437
f 1001//436 1013//436 1014//436 1002//436
f 1002//435 1014//435 1015//435 1003//435
f 1003//446 1015//446 1016//446 1004//446
f 1004//445 1016//445 1017//445 1005//445
f 1005//444 1017//444 1018//444 1006//444
f 1006//443 1018//443 1019//443 1007//443
f 1007//442 1019//442 1020//442 1008//442
f 1008//441 1020//441 1009//441 997//441
f 1009//452 1021//452 1022//452 1010//452
f 1010//451 1022//451 1023//451 1011//451
f 1011//450 1023//450 1024//450 1012//450
f 1012//449 1024//449 1025//449 1013//449
f 1013//448 1025//448 1026//448 1014//448
f 1014//447 1026//447 1027//447 1015//447
f 1015//600 1027//600 1028//600 1016//600
f 1016//457 1028//457 1029//457 1017//457
f 1017//456 1029//456 1030//456 1018//456
f 1018//455 1030//455 1031//455 1019//455
f 1019//454 1031//454 1032//454 1020//454
f 1020//453 1032//453 1021//453 1009//453
f 1021//464 1033//464 1034//464 1022//464
f 1022//463 1034//463 1035//463 1023//463
f 1023//462 1035//462 1036//462 1024//462
f 1024//461 1036//461 1037//461 1025//461
f 1025//460 1037//460 1038//460 1026//460
f 1026//459 1038//459 1039//459 1027//459
f 1027//470 1039//470 1040//470 1028//470
f 1028//469 1040//469 1041//469 1029//469
f 1029//468 1041//468 1042//468 1030//468
f 1030//467 1042//467 1043//467 1031//467
f 1031//466 1043//466 1044//466 1032//466
f 1032//601 1044//601 1033//601 1021//601
f 1033//476 1045//476 1046//476 1034//476
f 1034//475 1046//475 1047//475 1035//475
f 1035//474 1047//474 1048//474 1036//474
f 1036//473 1048//473 1049//473 1037//473
f 1037//472 1049//472 1050//472 1038//472
f 1038//471 1050//471 1051//471 1039//471
f 1039//482 1051//482 1052//482 1040//482
f 1040//481 1052//481 1053//481 1041//481
f 1041//480 1053//480 1054//480 1042//480
f 1042//479 1054//479 1055//479 1043//479
f 1043//478 1055//478 1056//478 1044//478
f 1044//477 1056//477 1045//477 1033//477
f 1045//488 1057//488 1058//488 1046//488
f 1046//487 1058//487 1059//487 1047//487
f 1047//486 1059//486 1060//486 1048//486
f 1048//485 1060//485 1061//485 1049//485
f 1049//484 1061//484 1062//484 1050//484
f 1050//483 1062//483 1063//483 1051//483
f 1051//494 1063//494 1064//494 1052//494
f 1052//493 1064//493 1065//493 1053//493
f 1053//492 1065//492 1066//492 1054//492
f 1054//491 1066//491 1067//491 1055//491
f 1055//490 1067//490 1068//490 1056//490
f 1056//489 1068//489 1057//489 1045//489
f 1057//500 1069//500 1070//500 1058//500
f 1058//499 1070//499 1071//499 1059//499
f 1059//498 1071//498 1072//498 1060//498
f 1060//497 1072//497 1073//497 1061//497
f 1061//496 1073//496 1074//496 1062//496
f 1062//495 1074//495 1075//495 1063//495
f 1063//506 1075//506 1076//506 1064//506
f 1064//505 1076//505 1077//505 1065//505
f 1065//504 1077//504 1078//504 1066//504
f 1066//503 1078//503 1079//503 1067//503
f 1067//502 1079//502 1080//502 1068//502
f 1068//501 1080//501 1069//501 1057//501
f 1069//512 1081//512 1082//512 1070//512
f 1070//511 1082//511 1083//511 1071//511
f 1071//510 1083//510 1084//510 1072//510
f 1072//509 1084//509 1085//509 1073//509
f 1073//508 1085//508 1086//508 1074//508
f 1074//507 1086//507 1087//507 1075//507
f 1075//518 1087//518 1088//518 1076//518
f 1076//517 1088//517 1089//517 1077//517
f 1077//516 1089//516 1090//516 1078//516
f 1078//515 1090//515 1091//515 1079//515
f 1079//514 1091//514 1092//514 1080//514
f 1080//513 1092//513 1081//513 1069//513
f 1081//524 1093//524 1094//524 1082//524
f 1082//523 1094//523 1095//523 1083//523
f 1083//522 1095//522 1096//522 1084//522
f 1084//521 1096//521 1097//521 1085//521
f 1085//520 1097//520 1098//520 1086//520
f 1086//519 1098//519 1099//519 1087//519
f 1087//530 1099//530 1100//530 1088//530
f 1088//529 1100//529 1101//529 1089//529
f 1089//528 1101//528 1102//528 1090//528
f 1090//527 1102//527 1103//527 1091//527
f 1091//526 1103//526 1104//526 1092//526
f 1092//525 1104//525 1093//525 1081//525
f 1093//536 1105//536 1106//536 1094//536
f 1094//535 1106//535 1107//535 1095//535
f 1095//534 1107//534 1108//534 1096//534
f 1096//533 1108//533 1109//533 1097//533
f 1097//532 1109//532 1110//532 1098//532
f 1098//531 1110//531 1111//531 1099//531
f 1099//542 1111//542 1112//542 1100//542
f 1100//541 1112//541 1113//541 1101//541
f 1101//540 1113//540 1114//540 1102//540
f 1102//539 1114//539 1115//539 1103//539
f 1103//538 1115//538 1116//538 1104//538
f 1104//537 1116//537 1105//537 1093//537
f 1105//548 1117//548 1118//548 1106//548
f 1106//547 1118//547 1119//547 1107//547
f 1107//546 1119//546 1120//546 1108//546
f 1108//545 1120//545 1121//545 1109//545
f 1109//544 1121//544 1122//544 1110//544
f 1110//543 1122//543 1123//543 1111//543
f 1111//554 1123//554 1124//554 1112//554
f 1112//553 1124//553 1125//553 1113//553
f 1113//552 1125//552 1126//552 1114//552
f 1114//551 1126//551 1127//551 1115//551
f 1115//550 1127//550 1128//550 1116//550
f 1116//549 1128//549 1117//549 1105//549
f 1117//560 1129//560 1130//560 1118//560
f 1118//602 1130//602 1131//602 1119//602
f 1119//558 1131//558 1132//558 1120//558
f 1120//557 1132//557 1133//557 1121//557
f 1121//556 1133//556 1134//556 1122//556
f 1122//555 1134//555 1135//555 1123//555
f 1123//566 1135//566 1136//566 1124//566
f 1124//565 1136//565 1137//565 1125//565
f 1125//564 1137//564 1138//564 1126//564
f 1126//563 1138//563 1139//563 1127//563
f 1127//562 1139//562 1140//562 1128//562
f 1128//561 1140//561 1129//561 1117//561
f 1129//572 1141//572 1142//572 1130//572
f 1130//571 1142//571 1143//571 1131//571
f 1131//570 1143//570 1144//570 1132//570
f 1132//569 1144//569 1145//569 1133//569
f 1133//568 1145//568 1146//568 1134//568
f 1134//567 1146//567 1147//567 1135//567
f 1135//603 1147//603 1148//603 1136//603
f 1136//577 1148//577 1149//577 1137//577
f 1137//576 1149//576 1150//576 1138//576
f 1138//575 1150//575 1151//575 1139//575
f 1139//574 1151//574 1152//574 1140//574
f 1140//573 1152//573 1141//573 1129//573
f 1141//584 577//584 578//584 1142//584
f 1142//583 578//583 579//583 1143//583
f 1143//582 579//582 580//582 1144//582
f 1144//581 580//581 581//581 1145//581
f 1145//604 581//604 582//604 1146//604
f 1146//579 582//579 583//579 1147//579
f 1147//590 583//590 584//590 1148//590
f 1148//589 584//589 585//589 1149//589
f 1149//588 585//588 586//588 1150//588
f 1150//587 586//587 587//587 1151//587
f 1151//586 587//586 588//586 1152//586
f 1152//585 588//585 577//585 1141//585
o Cone
v 0.000000 0.169787 -1.000000
v 0.195090 0.169787 -0.980785
v 0.382683 0.169787 -0.923880
v 0.555570 0.169787 -0.831470
v 0.707107 0.169787 -0.707107
v 0.831470 0.169787 -0.555570
v 0.923880 0.169787 -0.382683
v 0.980785 0.169787 -0.195090
v 1.000000 0.169787 -0.000000
v 0.000000 7.487122 0.000000
v 0.980785 0.169787 0.195090
v 0.923880 0.169787 0.382683
v 0.831470 0.169787 0.555570
v 0.707107 0.169787 0.707107
v 0.555570 0.169787 0.831470
v 0.382683 0.169787 0.923880
v 0.195090 0.169787 0.980785
v -0.000000 0.169787 1.000000
v -0.195091 0.169787 0.980785
v -0.382684 0.169787 0.923879
v -0.555571 0.169787 0.831469
v -0.707107 0.169787 0.707106
v -0.831470 0.169787 0.555570
v -0.923880 0.169787 0.382683
v -0.980785 0.169787 0.195089
v -1.000000 0.169787 -0.000001
v -0.980785 0.169787 -0.195091
v -0.923879 0.169787 -0.382684
v -0.831469 0.169787 -0.555571
v -0.707106 0.169787 -0.707108
v -0.555569 0.169787 -0.831470
v -0.382682 0.169787 -0.923880
v -0.195089 0.169787 -0.980786
vn -0.287600 0.134800 -0.948200
vn 0.097100 0.134800 -0.986100
vn -0.467100 0.134800 -0.873900
vn -0.628600 0.134800 -0.766000
vn -0.766000 0.134800 -0.628600
vn -0.873900 0.134800 -0.467100
vn -0.948200 0.134800 -0.287600
vn -0.986100 0.134800 -0.097100
vn -0.986100 0.134800 0.097100
vn -0.948200 0.134800 0.287600
vn -0.873900 0.134800 0.467100
vn -0.766000 0.134800 0.628600
vn -0.628600 0.134800 0.766000
vn -0.467100 0.134800 0.873900
vn -0.287600 0.134800 0.948200
vn -0.097100 0.134800 0.986100
vn 0.097100 0.134800 0.986100
vn 0.287600 0.134800 0.948200
vn 0.467100 0.134800 0.873900
vn 0.628600 0.134800 0.766000
vn 0.766000 0.134800 0.628600
vn 0.873900 0.134800 0.467100
vn 0.948200 0.134800 0.287600
vn 0.986100 0.134800 0.097100
vn 0.986100 0.134800 -0.097100
vn 0.948200 0.134800 -0.287600
vn 0.873900 0.134800 -0.467100
vn 0.766000 0.134800 -0.628600
vn 0.628600 0.134800 -0.766000
vn 0.467100 0.134800 -0.873900
vn -0.097100 0.134800 -0.986100
vn 0.287600 0.134800 -0.948200
vn 0.000000 -1.000000 -0.000000
usemtl Material.002
s off
f 1184//605 1162//605 1185//605
f 1153//606 1162//606 1154//606
f 1183//607 1162//607 1184//607
f 1182//608 1162//608 1183//608
f 1181//609 1162//609 1182//609
f 1180//610 1162//610 1181//610
f 1179//611 1162//611 1180//611
f 1178//612 1162//612 1179//612
f 1177//613 1162//613 1178//613
f 1176//614 1162//614 1177//614
f 1175//615 1162//615 1176//615
f 1174//616 1162//616 1175//616
f 1173//617 1162//617 1174//617
f 1172//618 1162//618 1173//618
f 1171//619 1162//619 1172//619
f 1170//620 1162//620 1171//620
f 1169//621 1162//621 1170//621
f 1168//622 1162//622 1169//622
f 1167//623 1162//623 1168//623
f 1166//624 1162//624 1167//624
f 1165//625 1162//625 1166//625
f 1164//626 1162//626 1165//626
f 1163//627 1162//627 1164//627
f 1161//628 1162//628 1163//628
f 1160//629 1162//629 1161//629
f 1159//630 1162//630 1160//630
f 1158//631 1162//631 1159//631
f 1157//632 1162//632 1158//632
f 1156//633 1162//633 1157//633
f 1155//634 1162//634 1156//634
f 1185//635 1162//635 1153//635
f 1154//636 1162//636 1155//636
f 1153//637 1154//637 1155//637 1156//637 1157//637 1158//637 1159//637 1160//637 1161//637 1163//637 1164//637 1165//637 1166//637 1167//637 1168//637 1169//637 1170//637 1171//637 1172//637 1173//637 1174//637 1175//637 1176//637 1177//637 1178//637 1179//637 1180//637 1181//637 1182//637 1183//637 1184//637 1185//637
